# MagicaVoxel @ Ephtracy

# group
o 

# material
mtllib teapot-1.mtl
usemtl palette

# normals
vn -1 0 0
vn 1 0 0
vn 0 0 1
vn 0 0 -1
vn 0 -1 0
vn 0 1 0

# texcoords
vt 0.900391 0.5
vt 0.951172 0.5
vt 0.978516 0.5

# verts
v -0.1 5.5 -1.5
v -0.1 5.5 -1.6
v -0.1 5.6 -1.5
v -0.1 5.6 -1.6
v -0.1 5.8 -1.2
v -0.1 5.8 -1.3
v -0.1 5.9 -1.2
v -0.1 5.9 -1.3
v -0.1 6.1 -0.9
v -0.1 6.1 -1
v -0.1 6.2 -0.9
v -0.1 6.2 -1
v 0 5.1 -1.9
v 0 5.1 -2
v 0 5.2 -1.8
v 0 5.2 -1.9
v 0 5.2 -2
v 0 5.3 -1.7
v 0 5.3 -1.8
v 0 5.3 -1.9
v 0 5.4 -1.5
v 0 5.4 -1.6
v 0 5.4 -1.7
v 0 5.4 -1.8
v 0 5.5 -1.4
v 0 5.5 -1.5
v 0 5.5 -1.6
v 0 5.5 -1.7
v 0 5.6 -1.4
v 0 5.6 -1.5
v 0 5.6 -1.6
v 0 5.6 -1.7
v 0 5.7 -1.2
v 0 5.7 -1.3
v 0 5.7 -1.4
v 0 5.7 -1.5
v 0 5.7 -1.6
v 0 5.8 -1.1
v 0 5.8 -1.2
v 0 5.8 -1.3
v 0 5.8 -1.4
v 0 5.9 -1.1
v 0 5.9 -1.2
v 0 5.9 -1.3
v 0 5.9 -1.4
v 0 6 -0.9
v 0 6 -1
v 0 6 -1.1
v 0 6 -1.2
v 0 6 -1.3
v 0 6.1 -0.8
v 0 6.1 -0.9
v 0 6.1 -1
v 0 6.1 -1.1
v 0 6.2 -0.8
v 0 6.2 -0.9
v 0 6.2 -1
v 0 6.2 -1.1
v 0 6.3 -0.7
v 0 6.3 -0.8
v 0 6.3 -0.9
v 0 6.3 -1
v 0 6.4 -0.7
v 0 6.4 -0.8
v 0.1 5.1 -1.9
v 0.1 5.1 -2
v 0.1 5.2 -1.8
v 0.1 5.2 -1.9
v 0.1 5.2 -2
v 0.1 5.3 -1.7
v 0.1 5.3 -1.8
v 0.1 5.3 -1.9
v 0.1 5.4 -1.5
v 0.1 5.4 -1.6
v 0.1 5.4 -1.7
v 0.1 5.4 -1.8
v 0.1 5.5 -1.4
v 0.1 5.5 -1.5
v 0.1 5.5 -1.6
v 0.1 5.5 -1.7
v 0.1 5.6 -1.4
v 0.1 5.6 -1.5
v 0.1 5.6 -1.6
v 0.1 5.6 -1.7
v 0.1 5.7 -1.2
v 0.1 5.7 -1.3
v 0.1 5.7 -1.4
v 0.1 5.7 -1.5
v 0.1 5.7 -1.6
v 0.1 5.8 -1.1
v 0.1 5.8 -1.2
v 0.1 5.8 -1.3
v 0.1 5.8 -1.4
v 0.1 5.9 -1.1
v 0.1 5.9 -1.2
v 0.1 5.9 -1.3
v 0.1 5.9 -1.4
v 0.1 6 -0.9
v 0.1 6 -1
v 0.1 6 -1.1
v 0.1 6 -1.2
v 0.1 6 -1.3
v 0.1 6.1 -0.8
v 0.1 6.1 -0.9
v 0.1 6.1 -1
v 0.1 6.1 -1.1
v 0.1 6.2 -0.8
v 0.1 6.2 -0.9
v 0.1 6.2 -1
v 0.1 6.2 -1.1
v 0.1 6.3 -0.7
v 0.1 6.3 -0.8
v 0.1 6.3 -0.9
v 0.1 6.3 -1
v 0.1 6.4 -0.7
v 0.1 6.4 -0.8
v 0.2 5.5 -1.5
v 0.2 5.5 -1.6
v 0.2 5.6 -1.5
v 0.2 5.6 -1.6
v 0.2 5.8 -1.2
v 0.2 5.8 -1.3
v 0.2 5.9 -1.2
v 0.2 5.9 -1.3
v 0.2 6.1 -0.9
v 0.2 6.1 -1
v 0.2 6.2 -0.9
v 0.2 6.2 -1
v 0 6.3 -0.7
v 0 6.4 -0.7
v 0.1 6.3 -0.7
v 0.1 6.4 -0.7
v 0 6.1 -0.8
v 0 6.2 -0.8
v 0 6.3 -0.8
v 0.1 6.1 -0.8
v 0.1 6.2 -0.8
v 0.1 6.3 -0.8
v -0.1 6.1 -0.9
v -0.1 6.2 -0.9
v 0 6 -0.9
v 0 6.1 -0.9
v 0 6.2 -0.9
v 0.1 6 -0.9
v 0.1 6.1 -0.9
v 0.1 6.2 -0.9
v 0.2 6.1 -0.9
v 0.2 6.2 -0.9
v 0 5.8 -1.1
v 0 5.9 -1.1
v 0 6 -1.1
v 0.1 5.8 -1.1
v 0.1 5.9 -1.1
v 0.1 6 -1.1
v -0.1 5.8 -1.2
v -0.1 5.9 -1.2
v 0 5.7 -1.2
v 0 5.8 -1.2
v 0 5.9 -1.2
v 0.1 5.7 -1.2
v 0.1 5.8 -1.2
v 0.1 5.9 -1.2
v 0.2 5.8 -1.2
v 0.2 5.9 -1.2
v 0 5.5 -1.4
v 0 5.6 -1.4
v 0 5.7 -1.4
v 0.1 5.5 -1.4
v 0.1 5.6 -1.4
v 0.1 5.7 -1.4
v -0.1 5.5 -1.5
v -0.1 5.6 -1.5
v 0 5.4 -1.5
v 0 5.5 -1.5
v 0 5.6 -1.5
v 0.1 5.4 -1.5
v 0.1 5.5 -1.5
v 0.1 5.6 -1.5
v 0.2 5.5 -1.5
v 0.2 5.6 -1.5
v 0 5.3 -1.7
v 0 5.4 -1.7
v 0.1 5.3 -1.7
v 0.1 5.4 -1.7
v 0 5.2 -1.8
v 0 5.3 -1.8
v 0.1 5.2 -1.8
v 0.1 5.3 -1.8
v 0 5.1 -1.9
v 0 5.2 -1.9
v 0.1 5.1 -1.9
v 0.1 5.2 -1.9
v 0 6.3 -0.8
v 0 6.4 -0.8
v 0.1 6.3 -0.8
v 0.1 6.4 -0.8
v -0.1 6.1 -1
v -0.1 6.2 -1
v 0 6.1 -1
v 0 6.2 -1
v 0 6.3 -1
v 0.1 6.1 -1
v 0.1 6.2 -1
v 0.1 6.3 -1
v 0.2 6.1 -1
v 0.2 6.2 -1
v 0 6 -1.1
v 0 6.1 -1.1
v 0 6.2 -1.1
v 0.1 6 -1.1
v 0.1 6.1 -1.1
v 0.1 6.2 -1.1
v -0.1 5.8 -1.3
v -0.1 5.9 -1.3
v 0 5.8 -1.3
v 0 5.9 -1.3
v 0 6 -1.3
v 0.1 5.8 -1.3
v 0.1 5.9 -1.3
v 0.1 6 -1.3
v 0.2 5.8 -1.3
v 0.2 5.9 -1.3
v 0 5.7 -1.4
v 0 5.8 -1.4
v 0 5.9 -1.4
v 0.1 5.7 -1.4
v 0.1 5.8 -1.4
v 0.1 5.9 -1.4
v -0.1 5.5 -1.6
v -0.1 5.6 -1.6
v 0 5.5 -1.6
v 0 5.6 -1.6
v 0 5.7 -1.6
v 0.1 5.5 -1.6
v 0.1 5.6 -1.6
v 0.1 5.7 -1.6
v 0.2 5.5 -1.6
v 0.2 5.6 -1.6
v 0 5.4 -1.7
v 0 5.5 -1.7
v 0 5.6 -1.7
v 0.1 5.4 -1.7
v 0.1 5.5 -1.7
v 0.1 5.6 -1.7
v 0 5.3 -1.8
v 0 5.4 -1.8
v 0.1 5.3 -1.8
v 0.1 5.4 -1.8
v 0 5.2 -1.9
v 0 5.3 -1.9
v 0.1 5.2 -1.9
v 0.1 5.3 -1.9
v 0 5.1 -2
v 0 5.2 -2
v 0.1 5.1 -2
v 0.1 5.2 -2
v 0 5.1 -1.9
v 0.1 5.1 -1.9
v 0 5.1 -2
v 0.1 5.1 -2
v 0 5.2 -1.8
v 0.1 5.2 -1.8
v 0 5.2 -1.9
v 0.1 5.2 -1.9
v 0 5.3 -1.7
v 0.1 5.3 -1.7
v 0 5.3 -1.8
v 0.1 5.3 -1.8
v 0 5.4 -1.5
v 0.1 5.4 -1.5
v 0 5.4 -1.6
v 0.1 5.4 -1.6
v 0 5.4 -1.7
v 0.1 5.4 -1.7
v 0 5.5 -1.4
v 0.1 5.5 -1.4
v -0.1 5.5 -1.5
v 0 5.5 -1.5
v 0.1 5.5 -1.5
v 0.2 5.5 -1.5
v -0.1 5.5 -1.6
v 0 5.5 -1.6
v 0.1 5.5 -1.6
v 0.2 5.5 -1.6
v 0 5.7 -1.2
v 0.1 5.7 -1.2
v 0 5.7 -1.3
v 0.1 5.7 -1.3
v 0 5.7 -1.4
v 0.1 5.7 -1.4
v 0 5.8 -1.1
v 0.1 5.8 -1.1
v -0.1 5.8 -1.2
v 0 5.8 -1.2
v 0.1 5.8 -1.2
v 0.2 5.8 -1.2
v -0.1 5.8 -1.3
v 0 5.8 -1.3
v 0.1 5.8 -1.3
v 0.2 5.8 -1.3
v 0 6 -0.9
v 0.1 6 -0.9
v 0 6 -1
v 0.1 6 -1
v 0 6 -1.1
v 0.1 6 -1.1
v 0 6.1 -0.8
v 0.1 6.1 -0.8
v -0.1 6.1 -0.9
v 0 6.1 -0.9
v 0.1 6.1 -0.9
v 0.2 6.1 -0.9
v -0.1 6.1 -1
v 0 6.1 -1
v 0.1 6.1 -1
v 0.2 6.1 -1
v 0 6.3 -0.7
v 0.1 6.3 -0.7
v 0 6.3 -0.8
v 0.1 6.3 -0.8
v 0 5.2 -1.9
v 0.1 5.2 -1.9
v 0 5.2 -2
v 0.1 5.2 -2
v 0 5.3 -1.8
v 0.1 5.3 -1.8
v 0 5.3 -1.9
v 0.1 5.3 -1.9
v 0 5.4 -1.7
v 0.1 5.4 -1.7
v 0 5.4 -1.8
v 0.1 5.4 -1.8
v -0.1 5.6 -1.5
v 0 5.6 -1.5
v 0.1 5.6 -1.5
v 0.2 5.6 -1.5
v -0.1 5.6 -1.6
v 0 5.6 -1.6
v 0.1 5.6 -1.6
v 0.2 5.6 -1.6
v 0 5.6 -1.7
v 0.1 5.6 -1.7
v 0 5.7 -1.4
v 0.1 5.7 -1.4
v 0 5.7 -1.5
v 0.1 5.7 -1.5
v 0 5.7 -1.6
v 0.1 5.7 -1.6
v -0.1 5.9 -1.2
v 0 5.9 -1.2
v 0.1 5.9 -1.2
v 0.2 5.9 -1.2
v -0.1 5.9 -1.3
v 0 5.9 -1.3
v 0.1 5.9 -1.3
v 0.2 5.9 -1.3
v 0 5.9 -1.4
v 0.1 5.9 -1.4
v 0 6 -1.1
v 0.1 6 -1.1
v 0 6 -1.2
v 0.1 6 -1.2
v 0 6 -1.3
v 0.1 6 -1.3
v -0.1 6.2 -0.9
v 0 6.2 -0.9
v 0.1 6.2 -0.9
v 0.2 6.2 -0.9
v -0.1 6.2 -1
v 0 6.2 -1
v 0.1 6.2 -1
v 0.2 6.2 -1
v 0 6.2 -1.1
v 0.1 6.2 -1.1
v 0 6.3 -0.8
v 0.1 6.3 -0.8
v 0 6.3 -0.9
v 0.1 6.3 -0.9
v 0 6.3 -1
v 0.1 6.3 -1
v 0 6.4 -0.7
v 0.1 6.4 -0.7
v 0 6.4 -0.8
v 0.1 6.4 -0.8

# faces
f 3/1/1 2/1/1 1/1/1
f 4/1/1 2/1/1 3/1/1
f 7/1/1 6/1/1 5/1/1
f 8/1/1 6/1/1 7/1/1
f 11/1/1 10/1/1 9/1/1
f 12/1/1 10/1/1 11/1/1
f 16/2/1 14/2/1 13/2/1
f 17/2/1 14/2/1 16/2/1
f 19/2/1 16/2/1 15/2/1
f 20/2/1 16/2/1 19/2/1
f 23/3/1 19/3/1 18/3/1
f 24/3/1 19/3/1 23/3/1
f 26/1/1 22/1/1 21/1/1
f 27/3/1 23/3/1 22/3/1
f 27/1/1 22/1/1 26/1/1
f 28/3/1 23/3/1 27/3/1
f 29/1/1 26/1/1 25/1/1
f 30/1/1 26/1/1 29/1/1
f 31/1/1 28/1/1 27/1/1
f 32/1/1 28/1/1 31/1/1
f 35/3/1 30/3/1 29/3/1
f 36/1/1 31/1/1 30/1/1
f 36/3/1 30/3/1 35/3/1
f 37/1/1 31/1/1 36/1/1
f 39/1/1 34/1/1 33/1/1
f 40/3/1 35/3/1 34/3/1
f 40/1/1 34/1/1 39/1/1
f 41/3/1 35/3/1 40/3/1
f 42/1/1 39/1/1 38/1/1
f 43/1/1 39/1/1 42/1/1
f 44/1/1 41/1/1 40/1/1
f 45/1/1 41/1/1 44/1/1
f 48/3/1 43/3/1 42/3/1
f 49/1/1 44/1/1 43/1/1
f 49/3/1 43/3/1 48/3/1
f 50/1/1 44/1/1 49/1/1
f 52/1/1 47/1/1 46/1/1
f 53/3/1 48/3/1 47/3/1
f 53/1/1 47/1/1 52/1/1
f 54/3/1 48/3/1 53/3/1
f 55/1/1 52/1/1 51/1/1
f 56/1/1 52/1/1 55/1/1
f 57/1/1 54/1/1 53/1/1
f 58/1/1 54/1/1 57/1/1
f 60/3/1 56/3/1 55/3/1
f 61/1/1 57/1/1 56/1/1
f 61/3/1 56/3/1 60/3/1
f 62/1/1 57/1/1 61/1/1
f 63/3/1 60/3/1 59/3/1
f 64/3/1 60/3/1 63/3/1
f 65/2/2 66/2/2 68/2/2
f 68/2/2 66/2/2 69/2/2
f 67/2/2 68/2/2 71/2/2
f 71/2/2 68/2/2 72/2/2
f 70/3/2 71/3/2 75/3/2
f 75/3/2 71/3/2 76/3/2
f 73/1/2 74/1/2 78/1/2
f 74/3/2 75/3/2 79/3/2
f 78/1/2 74/1/2 79/1/2
f 79/3/2 75/3/2 80/3/2
f 77/1/2 78/1/2 81/1/2
f 81/1/2 78/1/2 82/1/2
f 79/1/2 80/1/2 83/1/2
f 83/1/2 80/1/2 84/1/2
f 81/3/2 82/3/2 87/3/2
f 82/1/2 83/1/2 88/1/2
f 87/3/2 82/3/2 88/3/2
f 88/1/2 83/1/2 89/1/2
f 85/1/2 86/1/2 91/1/2
f 86/3/2 87/3/2 92/3/2
f 91/1/2 86/1/2 92/1/2
f 92/3/2 87/3/2 93/3/2
f 90/1/2 91/1/2 94/1/2
f 94/1/2 91/1/2 95/1/2
f 92/1/2 93/1/2 96/1/2
f 96/1/2 93/1/2 97/1/2
f 94/3/2 95/3/2 100/3/2
f 95/1/2 96/1/2 101/1/2
f 100/3/2 95/3/2 101/3/2
f 101/1/2 96/1/2 102/1/2
f 98/1/2 99/1/2 104/1/2
f 99/3/2 100/3/2 105/3/2
f 104/1/2 99/1/2 105/1/2
f 105/3/2 100/3/2 106/3/2
f 103/1/2 104/1/2 107/1/2
f 107/1/2 104/1/2 108/1/2
f 105/1/2 106/1/2 109/1/2
f 109/1/2 106/1/2 110/1/2
f 107/3/2 108/3/2 112/3/2
f 108/1/2 109/1/2 113/1/2
f 112/3/2 108/3/2 113/3/2
f 113/1/2 109/1/2 114/1/2
f 111/3/2 112/3/2 115/3/2
f 115/3/2 112/3/2 116/3/2
f 117/1/2 118/1/2 119/1/2
f 119/1/2 118/1/2 120/1/2
f 121/1/2 122/1/2 123/1/2
f 123/1/2 122/1/2 124/1/2
f 125/1/2 126/1/2 127/1/2
f 127/1/2 126/1/2 128/1/2
f 131/3/3 130/3/3 129/3/3
f 132/3/3 130/3/3 131/3/3
f 136/1/3 134/1/3 133/1/3
f 137/3/3 135/3/3 134/3/3
f 137/1/3 134/1/3 136/1/3
f 138/3/3 135/3/3 137/3/3
f 142/1/3 140/1/3 139/1/3
f 143/1/3 140/1/3 142/1/3
f 144/1/3 142/1/3 141/1/3
f 145/1/3 142/1/3 144/1/3
f 147/1/3 146/1/3 145/1/3
f 148/1/3 146/1/3 147/1/3
f 152/1/3 150/1/3 149/1/3
f 153/3/3 151/3/3 150/3/3
f 153/1/3 150/1/3 152/1/3
f 154/3/3 151/3/3 153/3/3
f 158/1/3 156/1/3 155/1/3
f 159/1/3 156/1/3 158/1/3
f 160/1/3 158/1/3 157/1/3
f 161/1/3 158/1/3 160/1/3
f 163/1/3 162/1/3 161/1/3
f 164/1/3 162/1/3 163/1/3
f 168/1/3 166/1/3 165/1/3
f 169/3/3 167/3/3 166/3/3
f 169/1/3 166/1/3 168/1/3
f 170/3/3 167/3/3 169/3/3
f 174/1/3 172/1/3 171/1/3
f 175/1/3 172/1/3 174/1/3
f 176/1/3 174/1/3 173/1/3
f 177/1/3 174/1/3 176/1/3
f 179/1/3 178/1/3 177/1/3
f 180/1/3 178/1/3 179/1/3
f 183/3/3 182/3/3 181/3/3
f 184/3/3 182/3/3 183/3/3
f 187/2/3 186/2/3 185/2/3
f 188/2/3 186/2/3 187/2/3
f 191/2/3 190/2/3 189/2/3
f 192/2/3 190/2/3 191/2/3
f 193/3/4 194/3/4 195/3/4
f 195/3/4 194/3/4 196/3/4
f 197/1/4 198/1/4 199/1/4
f 199/1/4 198/1/4 200/1/4
f 200/1/4 201/1/4 203/1/4
f 203/1/4 201/1/4 204/1/4
f 202/1/4 203/1/4 205/1/4
f 205/1/4 203/1/4 206/1/4
f 207/3/4 208/3/4 210/3/4
f 208/1/4 209/1/4 211/1/4
f 210/3/4 208/3/4 211/3/4
f 211/1/4 209/1/4 212/1/4
f 213/1/4 214/1/4 215/1/4
f 215/1/4 214/1/4 216/1/4
f 216/1/4 217/1/4 219/1/4
f 219/1/4 217/1/4 220/1/4
f 218/1/4 219/1/4 221/1/4
f 221/1/4 219/1/4 222/1/4
f 223/3/4 224/3/4 226/3/4
f 224/1/4 225/1/4 227/1/4
f 226/3/4 224/3/4 227/3/4
f 227/1/4 225/1/4 228/1/4
f 229/1/4 230/1/4 231/1/4
f 231/1/4 230/1/4 232/1/4
f 232/1/4 233/1/4 235/1/4
f 235/1/4 233/1/4 236/1/4
f 234/1/4 235/1/4 237/1/4
f 237/1/4 235/1/4 238/1/4
f 239/3/4 240/3/4 242/3/4
f 240/1/4 241/1/4 243/1/4
f 242/3/4 240/3/4 243/3/4
f 243/1/4 241/1/4 244/1/4
f 245/3/4 246/3/4 247/3/4
f 247/3/4 246/3/4 248/3/4
f 249/2/4 250/2/4 251/2/4
f 251/2/4 250/2/4 252/2/4
f 253/2/4 254/2/4 255/2/4
f 255/2/4 254/2/4 256/2/4
f 259/2/5 258/2/5 257/2/5
f 260/2/5 258/2/5 259/2/5
f 263/2/5 262/2/5 261/2/5
f 264/2/5 262/2/5 263/2/5
f 267/3/5 266/3/5 265/3/5
f 268/3/5 266/3/5 267/3/5
f 271/1/5 270/1/5 269/1/5
f 272/1/5 270/1/5 271/1/5
f 273/3/5 272/3/5 271/3/5
f 274/3/5 272/3/5 273/3/5
f 278/1/5 276/1/5 275/1/5
f 279/1/5 276/1/5 278/1/5
f 281/1/5 278/1/5 277/1/5
f 282/1/5 278/1/5 281/1/5
f 283/1/5 280/1/5 279/1/5
f 284/1/5 280/1/5 283/1/5
f 287/1/5 286/1/5 285/1/5
f 288/1/5 286/1/5 287/1/5
f 289/3/5 288/3/5 287/3/5
f 290/3/5 288/3/5 289/3/5
f 294/1/5 292/1/5 291/1/5
f 295/1/5 292/1/5 294/1/5
f 297/1/5 294/1/5 293/1/5
f 298/1/5 294/1/5 297/1/5
f 299/1/5 296/1/5 295/1/5
f 300/1/5 296/1/5 299/1/5
f 303/1/5 302/1/5 301/1/5
f 304/1/5 302/1/5 303/1/5
f 305/3/5 304/3/5 303/3/5
f 306/3/5 304/3/5 305/3/5
f 310/1/5 308/1/5 307/1/5
f 311/1/5 308/1/5 310/1/5
f 313/1/5 310/1/5 309/1/5
f 314/1/5 310/1/5 313/1/5
f 315/1/5 312/1/5 311/1/5
f 316/1/5 312/1/5 315/1/5
f 319/3/5 318/3/5 317/3/5
f 320/3/5 318/3/5 319/3/5
f 321/2/6 322/2/6 323/2/6
f 323/2/6 322/2/6 324/2/6
f 325/2/6 326/2/6 327/2/6
f 327/2/6 326/2/6 328/2/6
f 329/3/6 330/3/6 331/3/6
f 331/3/6 330/3/6 332/3/6
f 333/1/6 334/1/6 337/1/6
f 337/1/6 334/1/6 338/1/6
f 335/1/6 336/1/6 339/1/6
f 339/1/6 336/1/6 340/1/6
f 338/1/6 339/1/6 341/1/6
f 341/1/6 339/1/6 342/1/6
f 343/3/6 344/3/6 345/3/6
f 345/3/6 344/3/6 346/3/6
f 345/1/6 346/1/6 347/1/6
f 347/1/6 346/1/6 348/1/6
f 349/1/6 350/1/6 353/1/6
f 353/1/6 350/1/6 354/1/6
f 351/1/6 352/1/6 355/1/6
f 355/1/6 352/1/6 356/1/6
f 354/1/6 355/1/6 357/1/6
f 357/1/6 355/1/6 358/1/6
f 359/3/6 360/3/6 361/3/6
f 361/3/6 360/3/6 362/3/6
f 361/1/6 362/1/6 363/1/6
f 363/1/6 362/1/6 364/1/6
f 365/1/6 366/1/6 369/1/6
f 369/1/6 366/1/6 370/1/6
f 367/1/6 368/1/6 371/1/6
f 371/1/6 368/1/6 372/1/6
f 370/1/6 371/1/6 373/1/6
f 373/1/6 371/1/6 374/1/6
f 375/3/6 376/3/6 377/3/6
f 377/3/6 376/3/6 378/3/6
f 377/1/6 378/1/6 379/1/6
f 379/1/6 378/1/6 380/1/6
f 381/3/6 382/3/6 383/3/6
f 383/3/6 382/3/6 384/3/6
