# MagicaVoxel @ Ephtracy

# group
o 

# material
mtllib teapot-3.mtl
usemtl palette

# normals
vn -1 0 0
vn 1 0 0
vn 0 0 1
vn 0 0 -1
vn 0 -1 0
vn 0 1 0

# texcoords
vt 0.896484 0.5
vt 0.908203 0.5
vt 0.919922 0.5
vt 0.943359 0.5
vt 0.951172 0.5

# verts
v -2.7 9.9 -0.8
v -2.7 9.9 -0.9
v -2.7 9.9 -1.1
v -2.7 9.9 -1.2
v -2.7 10.1 -0.1
v -2.7 10.1 -0.8
v -2.7 10.1 -0.9
v -2.7 10.1 -1.1
v -2.7 10.1 -1.2
v -2.7 10.1 -1.9
v -2.7 10.3 -0.1
v -2.7 10.3 -1.9
v -2.6 9.6 -0.2
v -2.6 9.6 -1.8
v -2.6 9.9 -0.8
v -2.6 9.9 -0.9
v -2.6 9.9 -1.1
v -2.6 9.9 -1.2
v -2.6 10.1 -0.2
v -2.6 10.1 -0.8
v -2.6 10.1 -0.9
v -2.6 10.1 -1.1
v -2.6 10.1 -1.2
v -2.6 10.1 -1.8
v -2.5 9.4 -0.3
v -2.5 9.4 -1.8
v -2.5 9.6 -0.3
v -2.5 9.6 -1.8
v -2.3 9.9 -1.8
v -2.3 9.9 -1.9
v -2.3 10.1 -1.8
v -2.3 10.1 -1.9
v -2 10 -0.1
v -2 10 -0.2
v -2 10.1 -0.1
v -2 10.1 -0.2
v -1.9 9.9 -0.1
v -1.9 9.9 -0.2
v -1.9 10 -0.1
v -1.9 10 -0.2
v -1.8 9.4 -1
v -1.8 9.4 -1.7
v -1.8 9.6 -1
v -1.8 9.6 -1.7
v -1.8 10 -1.8
v -1.8 10 -1.9
v -1.8 10.1 -1
v -1.8 10.1 -1.7
v -1.8 10.1 -1.8
v -1.8 10.1 -1.9
v -1.7 9.4 -0.4
v -1.7 9.4 -1
v -1.7 9.6 -0.4
v -1.7 9.6 -1
v -1.7 10.1 -0.4
v -1.7 10.1 -1
v -1.5 10 -1.8
v -1.5 10 -1.9
v -1.5 10.1 -1.8
v -1.5 10.1 -1.9
v -1.3 9.9 -0.2
v -1.3 9.9 -0.3
v -1.3 10.1 -0.2
v -1.3 10.1 -0.3
v -1.3 10.3 -0.3
v -1.3 10.3 -0.4
v -1.3 10.4 -0.3
v -1.3 10.4 -0.4
v -1.2 10.3 -0.2
v -1.2 10.3 -0.3
v -1.2 10.4 -0.2
v -1.2 10.4 -0.3
v -2.4 9.4 -0.4
v -2.4 9.4 -1.7
v -2.4 9.6 -0.4
v -2.4 9.6 -1.7
v -2.4 10.1 -0.4
v -2.4 10.1 -1.7
v -2.2 9.9 -1.8
v -2.2 9.9 -1.9
v -2.2 10.1 -1.8
v -2.2 10.1 -1.9
v -1.8 9.9 -0.1
v -1.8 9.9 -0.2
v -1.8 10 -0.1
v -1.8 10 -0.2
v -1.7 9.9 -0.2
v -1.7 9.9 -0.3
v -1.7 10 -0.1
v -1.7 10 -0.2
v -1.7 10 -0.3
v -1.7 10 -1.8
v -1.7 10 -1.9
v -1.7 10.1 -0.1
v -1.7 10.1 -0.2
v -1.7 10.1 -0.3
v -1.7 10.1 -1.8
v -1.7 10.1 -1.9
v -1.3 10 -1.8
v -1.3 10 -1.9
v -1.3 10.1 -1.8
v -1.3 10.1 -1.9
v -1.2 10.3 -0.3
v -1.2 10.3 -0.4
v -1.2 10.4 -0.3
v -1.2 10.4 -0.4
v -1.1 9.4 -0.3
v -1.1 9.4 -1.8
v -1.1 9.6 -0.3
v -1.1 9.6 -1.8
v -1.1 10.3 -0.2
v -1.1 10.3 -0.3
v -1.1 10.4 -0.2
v -1.1 10.4 -0.3
v -1 9.6 -0.2
v -1 9.6 -1.8
v -1 10.1 -0.2
v -1 10.1 -0.6
v -1 10.1 -1.4
v -1 10.1 -1.8
v -0.9 10.1 -0.1
v -0.9 10.1 -0.6
v -0.9 10.1 -1.4
v -0.9 10.1 -1.9
v -0.9 10.2 -0.6
v -0.9 10.2 -1.4
v -0.9 10.3 -0.1
v -0.9 10.3 -1.9
v -2.7 10.1 -0.1
v -2.7 10.3 -0.1
v -2 10 -0.1
v -2 10.1 -0.1
v -1.9 9.9 -0.1
v -1.9 10 -0.1
v -1.8 9.9 -0.1
v -1.8 10 -0.1
v -1.7 10 -0.1
v -1.7 10.1 -0.1
v -0.9 10.1 -0.1
v -0.9 10.3 -0.1
v -2.6 9.6 -0.2
v -2.6 10.1 -0.2
v -2 10 -0.2
v -2 10.1 -0.2
v -1.9 9.9 -0.2
v -1.9 10 -0.2
v -1.8 9.9 -0.2
v -1.8 10 -0.2
v -1.7 9.9 -0.2
v -1.7 10 -0.2
v -1.3 9.9 -0.2
v -1.3 10.1 -0.2
v -1.2 10.3 -0.2
v -1.2 10.4 -0.2
v -1.1 10.3 -0.2
v -1.1 10.4 -0.2
v -1 9.6 -0.2
v -1 10.1 -0.2
v -2.5 9.4 -0.3
v -2.5 9.6 -0.3
v -1.7 9.9 -0.3
v -1.7 10 -0.3
v -1.7 10.1 -0.3
v -1.3 9.9 -0.3
v -1.3 10.1 -0.3
v -1.3 10.3 -0.3
v -1.3 10.4 -0.3
v -1.2 10.3 -0.3
v -1.2 10.4 -0.3
v -1.1 9.4 -0.3
v -1.1 9.6 -0.3
v -2.7 9.9 -0.8
v -2.7 10.1 -0.8
v -2.6 9.9 -0.8
v -2.6 10.1 -0.8
v -1.8 9.4 -1
v -1.8 9.6 -1
v -1.8 10.1 -1
v -1.7 9.4 -1
v -1.7 9.6 -1
v -1.7 10.1 -1
v -2.7 9.9 -1.1
v -2.7 10.1 -1.1
v -2.6 9.9 -1.1
v -2.6 10.1 -1.1
v -2.4 9.4 -1.7
v -2.4 9.6 -1.7
v -2.4 10.1 -1.7
v -2.3 9.9 -1.7
v -2.3 10.1 -1.7
v -2.2 9.9 -1.7
v -2.2 10.1 -1.7
v -1.8 9.4 -1.7
v -1.8 9.6 -1.7
v -1.8 10.1 -1.7
v -1.2 10.3 -0.3
v -1.2 10.4 -0.3
v -1.1 10.3 -0.3
v -1.1 10.4 -0.3
v -2.4 9.4 -0.4
v -2.4 9.6 -0.4
v -2.4 10.1 -0.4
v -1.7 9.4 -0.4
v -1.7 9.6 -0.4
v -1.7 10.1 -0.4
v -1.3 10.3 -0.4
v -1.3 10.4 -0.4
v -1.2 10.3 -0.4
v -1.2 10.4 -0.4
v -2.7 9.9 -0.9
v -2.7 10.1 -0.9
v -2.6 9.9 -0.9
v -2.6 10.1 -0.9
v -2.7 9.9 -1.2
v -2.7 10.1 -1.2
v -2.6 9.9 -1.2
v -2.6 10.1 -1.2
v -2.6 9.6 -1.8
v -2.6 10.1 -1.8
v -2.5 9.4 -1.8
v -2.5 9.6 -1.8
v -2.3 9.9 -1.8
v -2.3 10.1 -1.8
v -2.2 9.9 -1.8
v -2.2 10.1 -1.8
v -1.8 10 -1.8
v -1.8 10.1 -1.8
v -1.7 10 -1.8
v -1.7 10.1 -1.8
v -1.5 10 -1.8
v -1.5 10.1 -1.8
v -1.3 10 -1.8
v -1.3 10.1 -1.8
v -1.1 9.4 -1.8
v -1.1 9.6 -1.8
v -1 9.6 -1.8
v -1 10.1 -1.8
v -2.7 10.1 -1.9
v -2.7 10.3 -1.9
v -2.3 9.9 -1.9
v -2.3 10.1 -1.9
v -2.2 9.9 -1.9
v -2.2 10.1 -1.9
v -1.8 10 -1.9
v -1.8 10.1 -1.9
v -1.7 10 -1.9
v -1.7 10.1 -1.9
v -1.5 10 -1.9
v -1.5 10.1 -1.9
v -1.3 10 -1.9
v -1.3 10.1 -1.9
v -0.9 10.1 -1.9
v -0.9 10.3 -1.9
v -2.5 9.4 -0.3
v -1.1 9.4 -0.3
v -2.4 9.4 -0.4
v -1.7 9.4 -0.4
v -1.8 9.4 -1
v -1.7 9.4 -1
v -2.4 9.4 -1.7
v -1.8 9.4 -1.7
v -2.5 9.4 -1.8
v -1.1 9.4 -1.8
v -2.6 9.6 -0.2
v -1 9.6 -0.2
v -2.5 9.6 -0.3
v -1.1 9.6 -0.3
v -2.6 9.6 -1.8
v -2.5 9.6 -1.8
v -1.1 9.6 -1.8
v -1 9.6 -1.8
v -1.9 9.9 -0.1
v -1.8 9.9 -0.1
v -1.9 9.9 -0.2
v -1.8 9.9 -0.2
v -2.7 9.9 -0.8
v -2.6 9.9 -0.8
v -2.7 9.9 -0.9
v -2.6 9.9 -0.9
v -2.7 9.9 -1.1
v -2.6 9.9 -1.1
v -2.7 9.9 -1.2
v -2.6 9.9 -1.2
v -2.3 9.9 -1.8
v -2.2 9.9 -1.8
v -2.3 9.9 -1.9
v -2.2 9.9 -1.9
v -2 10 -0.1
v -1.9 10 -0.1
v -1.8 10 -0.1
v -1.7 10 -0.1
v -2 10 -0.2
v -1.9 10 -0.2
v -1.8 10 -0.2
v -1.7 10 -0.2
v -1.8 10 -1.8
v -1.7 10 -1.8
v -1.5 10 -1.8
v -1.3 10 -1.8
v -1.8 10 -1.9
v -1.7 10 -1.9
v -1.5 10 -1.9
v -1.3 10 -1.9
v -2.7 10.1 -0.1
v -2 10.1 -0.1
v -1.7 10.1 -0.1
v -0.9 10.1 -0.1
v -2.6 10.1 -0.2
v -2 10.1 -0.2
v -1.7 10.1 -0.2
v -1.3 10.1 -0.2
v -1 10.1 -0.2
v -1.7 10.1 -0.3
v -1.3 10.1 -0.3
v -2.4 10.1 -0.4
v -1.7 10.1 -0.4
v -1 10.1 -0.6
v -0.9 10.1 -0.6
v -2.7 10.1 -0.8
v -2.6 10.1 -0.8
v -2.7 10.1 -0.9
v -2.6 10.1 -0.9
v -1.8 10.1 -1
v -1.7 10.1 -1
v -2.7 10.1 -1.1
v -2.6 10.1 -1.1
v -2.7 10.1 -1.2
v -2.6 10.1 -1.2
v -1 10.1 -1.4
v -0.9 10.1 -1.4
v -2.4 10.1 -1.7
v -2.3 10.1 -1.7
v -2.2 10.1 -1.7
v -1.8 10.1 -1.7
v -2.6 10.1 -1.8
v -2.3 10.1 -1.8
v -2.2 10.1 -1.8
v -1.8 10.1 -1.8
v -1.7 10.1 -1.8
v -1.5 10.1 -1.8
v -1.3 10.1 -1.8
v -1 10.1 -1.8
v -2.7 10.1 -1.9
v -2.3 10.1 -1.9
v -2.2 10.1 -1.9
v -1.8 10.1 -1.9
v -1.7 10.1 -1.9
v -1.5 10.1 -1.9
v -1.3 10.1 -1.9
v -0.9 10.1 -1.9
v -1.7 9.9 -0.2
v -1.3 9.9 -0.2
v -1.7 9.9 -0.3
v -1.3 9.9 -0.3
v -2.7 10.3 -0.1
v -0.9 10.3 -0.1
v -1.2 10.3 -0.2
v -1.1 10.3 -0.2
v -1.3 10.3 -0.3
v -1.2 10.3 -0.3
v -1.1 10.3 -0.3
v -1.3 10.3 -0.4
v -1.2 10.3 -0.4
v -2.7 10.3 -1.9
v -0.9 10.3 -1.9
v -1.2 10.4 -0.2
v -1.1 10.4 -0.2
v -1.3 10.4 -0.3
v -1.2 10.4 -0.3
v -1.1 10.4 -0.3
v -1.3 10.4 -0.4
v -1.2 10.4 -0.4

# faces
f 6/3/1 2/3/1 1/3/1
f 7/3/1 2/3/1 6/3/1
f 8/3/1 4/3/1 3/3/1
f 9/3/1 4/3/1 8/3/1
f 11/3/1 7/3/1 6/3/1
f 11/3/1 10/3/1 9/3/1
f 11/3/1 9/3/1 8/3/1
f 11/3/1 8/3/1 7/3/1
f 11/3/1 6/3/1 5/3/1
f 12/3/1 10/3/1 11/3/1
f 15/5/1 14/5/1 13/5/1
f 16/5/1 14/5/1 15/5/1
f 17/5/1 14/5/1 16/5/1
f 18/5/1 14/5/1 17/5/1
f 19/5/1 15/5/1 13/5/1
f 20/5/1 15/5/1 19/5/1
f 21/5/1 17/5/1 16/5/1
f 22/5/1 17/5/1 21/5/1
f 23/5/1 14/5/1 18/5/1
f 24/5/1 14/5/1 23/5/1
f 27/4/1 26/4/1 25/4/1
f 28/4/1 26/4/1 27/4/1
f 31/3/1 30/3/1 29/3/1
f 32/3/1 30/3/1 31/3/1
f 35/3/1 34/3/1 33/3/1
f 36/3/1 34/3/1 35/3/1
f 39/3/1 38/3/1 37/3/1
f 40/3/1 38/3/1 39/3/1
f 43/4/1 42/4/1 41/4/1
f 44/4/1 42/4/1 43/4/1
f 47/5/1 44/5/1 43/5/1
f 48/5/1 44/5/1 47/5/1
f 49/3/1 46/3/1 45/3/1
f 50/3/1 46/3/1 49/3/1
f 53/4/1 52/4/1 51/4/1
f 54/4/1 52/4/1 53/4/1
f 55/5/1 54/5/1 53/5/1
f 56/5/1 54/5/1 55/5/1
f 59/3/1 58/3/1 57/3/1
f 60/3/1 58/3/1 59/3/1
f 63/5/1 62/5/1 61/5/1
f 64/5/1 62/5/1 63/5/1
f 67/3/1 66/3/1 65/3/1
f 68/3/1 66/3/1 67/3/1
f 71/3/1 70/3/1 69/3/1
f 72/3/1 70/3/1 71/3/1
f 73/4/2 74/4/2 75/4/2
f 75/4/2 74/4/2 76/4/2
f 75/5/2 76/5/2 77/5/2
f 77/5/2 76/5/2 78/5/2
f 79/3/2 80/3/2 81/3/2
f 81/3/2 80/3/2 82/3/2
f 83/3/2 84/3/2 85/3/2
f 85/3/2 84/3/2 86/3/2
f 87/5/2 88/5/2 90/5/2
f 90/5/2 88/5/2 91/5/2
f 89/3/2 90/3/2 94/3/2
f 90/3/2 91/3/2 94/3/2
f 94/3/2 91/3/2 95/3/2
f 95/3/2 91/3/2 96/3/2
f 92/3/2 93/3/2 97/3/2
f 97/3/2 93/3/2 98/3/2
f 99/3/2 100/3/2 101/3/2
f 101/3/2 100/3/2 102/3/2
f 103/3/2 104/3/2 105/3/2
f 105/3/2 104/3/2 106/3/2
f 107/4/2 108/4/2 109/4/2
f 109/4/2 108/4/2 110/4/2
f 111/3/2 112/3/2 113/3/2
f 113/3/2 112/3/2 114/3/2
f 115/5/2 116/5/2 117/5/2
f 117/5/2 116/5/2 118/5/2
f 118/5/2 116/5/2 119/5/2
f 119/5/2 116/5/2 120/5/2
f 121/3/2 122/3/2 125/3/2
f 122/1/2 123/1/2 125/1/2
f 123/3/2 124/3/2 126/3/2
f 125/1/2 123/1/2 126/1/2
f 121/3/2 125/3/2 127/3/2
f 125/3/2 126/3/2 127/3/2
f 126/3/2 124/3/2 128/3/2
f 127/3/2 126/3/2 128/3/2
f 132/3/3 130/3/3 129/3/3
f 134/3/3 132/3/3 131/3/3
f 135/3/3 134/3/3 133/3/3
f 136/3/3 132/3/3 134/3/3
f 136/3/3 134/3/3 135/3/3
f 137/3/3 132/3/3 136/3/3
f 138/3/3 130/3/3 132/3/3
f 138/3/3 132/3/3 137/3/3
f 139/3/3 130/3/3 138/3/3
f 140/3/3 130/3/3 139/3/3
f 143/5/3 142/5/3 141/5/3
f 144/5/3 142/5/3 143/5/3
f 145/5/3 143/5/3 141/5/3
f 146/5/3 143/5/3 145/5/3
f 147/5/3 145/5/3 141/5/3
f 149/5/3 147/5/3 141/5/3
f 149/5/3 148/5/3 147/5/3
f 150/5/3 148/5/3 149/5/3
f 151/5/3 149/5/3 141/5/3
f 155/3/3 154/3/3 153/3/3
f 156/3/3 154/3/3 155/3/3
f 157/5/3 152/5/3 151/5/3
f 157/5/3 151/5/3 141/5/3
f 158/5/3 152/5/3 157/5/3
f 164/5/3 162/5/3 161/5/3
f 164/5/3 163/5/3 162/5/3
f 165/5/3 163/5/3 164/5/3
f 168/3/3 167/3/3 166/3/3
f 169/3/3 167/3/3 168/3/3
f 170/4/3 160/4/3 159/4/3
f 171/4/3 160/4/3 170/4/3
f 174/3/3 173/3/3 172/3/3
f 175/3/3 173/3/3 174/3/3
f 179/4/3 177/4/3 176/4/3
f 180/5/3 178/5/3 177/5/3
f 180/4/3 177/4/3 179/4/3
f 181/5/3 178/5/3 180/5/3
f 184/3/3 183/3/3 182/3/3
f 185/3/3 183/3/3 184/3/3
f 189/5/3 188/5/3 187/5/3
f 190/5/3 188/5/3 189/5/3
f 191/5/3 189/5/3 187/5/3
f 191/3/3 190/3/3 189/3/3
f 192/3/3 190/3/3 191/3/3
f 193/4/3 187/4/3 186/4/3
f 194/5/3 191/5/3 187/5/3
f 194/4/3 187/4/3 193/4/3
f 194/5/3 192/5/3 191/5/3
f 195/5/3 192/5/3 194/5/3
f 196/3/4 197/3/4 198/3/4
f 198/3/4 197/3/4 199/3/4
f 200/4/4 201/4/4 203/4/4
f 201/5/4 202/5/4 204/5/4
f 203/4/4 201/4/4 204/4/4
f 204/5/4 202/5/4 205/5/4
f 206/3/4 207/3/4 208/3/4
f 208/3/4 207/3/4 209/3/4
f 210/3/4 211/3/4 212/3/4
f 212/3/4 211/3/4 213/3/4
f 214/3/4 215/3/4 216/3/4
f 216/3/4 215/3/4 217/3/4
f 218/5/4 219/5/4 221/5/4
f 221/5/4 219/5/4 222/5/4
f 222/5/4 219/5/4 223/5/4
f 221/5/4 222/5/4 224/5/4
f 224/5/4 225/5/4 226/5/4
f 226/5/4 225/5/4 227/5/4
f 224/5/4 226/5/4 228/5/4
f 224/5/4 228/5/4 230/5/4
f 228/5/4 229/5/4 230/5/4
f 230/5/4 229/5/4 231/5/4
f 224/5/4 230/5/4 232/5/4
f 220/4/4 221/4/4 234/4/4
f 232/5/4 233/5/4 235/5/4
f 234/4/4 221/4/4 235/4/4
f 221/5/4 224/5/4 235/5/4
f 224/5/4 232/5/4 235/5/4
f 235/5/4 233/5/4 236/5/4
f 236/5/4 233/5/4 237/5/4
f 238/3/4 239/3/4 241/3/4
f 240/3/4 241/3/4 242/3/4
f 241/3/4 239/3/4 243/3/4
f 242/3/4 241/3/4 243/3/4
f 243/3/4 239/3/4 245/3/4
f 244/3/4 245/3/4 246/3/4
f 245/3/4 239/3/4 247/3/4
f 246/3/4 245/3/4 247/3/4
f 247/3/4 239/3/4 249/3/4
f 248/3/4 249/3/4 250/3/4
f 249/3/4 239/3/4 251/3/4
f 250/3/4 249/3/4 251/3/4
f 251/3/4 239/3/4 252/3/4
f 252/3/4 239/3/4 253/3/4
f 256/4/5 255/4/5 254/4/5
f 257/4/5 255/4/5 256/4/5
f 259/4/5 255/4/5 257/4/5
f 260/4/5 256/4/5 254/4/5
f 261/4/5 259/4/5 258/4/5
f 262/4/5 260/4/5 254/4/5
f 262/4/5 261/4/5 260/4/5
f 263/4/5 259/4/5 261/4/5
f 263/4/5 261/4/5 262/4/5
f 263/4/5 255/4/5 259/4/5
f 266/5/5 265/5/5 264/5/5
f 267/5/5 265/5/5 266/5/5
f 268/5/5 266/5/5 264/5/5
f 269/5/5 266/5/5 268/5/5
f 270/5/5 265/5/5 267/5/5
f 271/5/5 265/5/5 270/5/5
f 274/3/5 273/3/5 272/3/5
f 275/3/5 273/3/5 274/3/5
f 278/3/5 277/3/5 276/3/5
f 279/3/5 277/3/5 278/3/5
f 282/3/5 281/3/5 280/3/5
f 283/3/5 281/3/5 282/3/5
f 286/3/5 285/3/5 284/3/5
f 287/3/5 285/3/5 286/3/5
f 292/3/5 289/3/5 288/3/5
f 293/3/5 289/3/5 292/3/5
f 294/3/5 291/3/5 290/3/5
f 295/3/5 291/3/5 294/3/5
f 300/3/5 297/3/5 296/3/5
f 301/3/5 297/3/5 300/3/5
f 302/3/5 299/3/5 298/3/5
f 303/3/5 299/3/5 302/3/5
f 308/3/5 305/3/5 304/3/5
f 309/3/5 305/3/5 308/3/5
f 310/3/5 307/3/5 306/3/5
f 311/3/5 307/3/5 310/3/5
f 312/3/5 307/3/5 311/3/5
f 313/2/5 311/2/5 310/2/5
f 314/2/5 311/2/5 313/2/5
f 317/3/5 307/3/5 312/3/5
f 318/3/5 307/3/5 317/3/5
f 319/3/5 308/3/5 304/3/5
f 320/3/5 308/3/5 319/3/5
f 323/2/5 316/2/5 315/2/5
f 324/2/5 316/2/5 323/2/5
f 325/3/5 322/3/5 321/3/5
f 326/3/5 322/3/5 325/3/5
f 329/1/5 318/1/5 317/1/5
f 330/1/5 318/1/5 329/1/5
f 331/2/5 323/2/5 315/2/5
f 332/2/5 323/2/5 331/2/5
f 333/2/5 323/2/5 332/2/5
f 334/2/5 323/2/5 333/2/5
f 335/3/5 328/3/5 327/3/5
f 342/3/5 330/3/5 329/3/5
f 343/3/5 335/3/5 327/3/5
f 343/3/5 336/3/5 335/3/5
f 344/3/5 336/3/5 343/3/5
f 345/3/5 338/3/5 337/3/5
f 346/3/5 338/3/5 345/3/5
f 347/3/5 340/3/5 339/3/5
f 348/3/5 340/3/5 347/3/5
f 349/3/5 342/3/5 341/3/5
f 350/3/5 330/3/5 342/3/5
f 350/3/5 342/3/5 349/3/5
f 351/5/6 352/5/6 353/5/6
f 353/5/6 352/5/6 354/5/6
f 355/3/6 356/3/6 357/3/6
f 357/3/6 356/3/6 358/3/6
f 355/3/6 357/3/6 359/3/6
f 359/3/6 357/3/6 360/3/6
f 358/3/6 356/3/6 361/3/6
f 355/3/6 359/3/6 362/3/6
f 360/3/6 361/3/6 363/3/6
f 355/3/6 362/3/6 364/3/6
f 362/3/6 363/3/6 364/3/6
f 363/3/6 361/3/6 365/3/6
f 364/3/6 363/3/6 365/3/6
f 361/3/6 356/3/6 365/3/6
f 366/3/6 367/3/6 369/3/6
f 369/3/6 367/3/6 370/3/6
f 368/3/6 369/3/6 371/3/6
f 371/3/6 369/3/6 372/3/6
