# MagicaVoxel @ Ephtracy

# group
o 

# material
mtllib medik-4.mtl
usemtl palette

# normals
vn -1 0 0
vn 1 0 0
vn 0 0 1
vn 0 0 -1
vn 0 -1 0
vn 0 1 0

# texcoords
vt 0.630859 0.5
vt 0.642578 0.5
vt 0.677734 0.5

# verts
v -0.7 8 2.4
v -0.7 8 1
v -0.7 8.1 2.5
v -0.7 8.1 2.4
v -0.7 8.1 1
v -0.7 8.1 0.9
v -0.7 8.2 2.7
v -0.7 8.2 2.5
v -0.7 8.2 2.2
v -0.7 8.2 1.2
v -0.7 8.2 0.9
v -0.7 8.2 0.7
v -0.7 8.3 2.4
v -0.7 8.3 2.2
v -0.7 8.3 1.2
v -0.7 8.3 1.1
v -0.7 8.4 2.7
v -0.7 8.4 2.6
v -0.7 8.4 2.4
v -0.7 8.4 1.1
v -0.7 8.4 0.8
v -0.7 8.4 0.7
v -0.7 8.8 1.8
v -0.7 8.8 1.6
v -0.7 8.9 1.8
v -0.7 8.9 1.6
v -0.7 9.3 1.8
v -0.7 9.3 1.6
v -0.7 9.4 1.8
v -0.7 9.4 1.6
v -0.7 9.7 1.8
v -0.7 9.7 1.6
v -0.7 9.8 1.8
v -0.7 9.8 1.6
v -0.7 10.1 1.8
v -0.7 10.1 1.6
v -0.7 10.2 1.8
v -0.7 10.2 1.6
v -0.7 10.5 2.7
v -0.7 10.5 2.6
v -0.7 10.5 0.8
v -0.7 10.5 0.7
v -0.7 10.6 2.7
v -0.7 10.6 2.6
v -0.7 10.6 0.8
v -0.7 10.6 0.7
v -0.6 8.4 2.7
v -0.6 8.4 2.6
v -0.6 8.4 0.8
v -0.6 8.4 0.7
v -0.6 10.4 2.7
v -0.6 10.4 2.6
v -0.6 10.4 0.8
v -0.6 10.4 0.7
v -0.6 10.5 2.7
v -0.6 10.5 2.6
v -0.6 10.5 0.8
v -0.6 10.5 0.7
v -0.5 7.8 2.7
v -0.5 7.8 0.7
v -0.5 7.9 2.7
v -0.5 7.9 0.7
v -0.5 8 2.4
v -0.5 8 1
v -0.5 8.1 2.5
v -0.5 8.1 2.4
v -0.5 8.1 1
v -0.5 8.1 0.9
v -0.5 8.2 2.7
v -0.5 8.2 2.6
v -0.5 8.2 2.5
v -0.5 8.2 0.9
v -0.5 8.2 0.8
v -0.5 8.2 0.7
v 0.6 7.8 2.7
v 0.6 7.8 0.7
v 0.6 7.9 2.7
v 0.6 7.9 0.7
v 0.6 8.2 2.7
v 0.6 8.2 0.7
v 0.7 8.2 2.7
v 0.7 8.2 0.7
v 0.7 8.3 2.7
v 0.7 8.3 0.7
v 0.7 10 2.7
v 0.7 10 2.6
v 0.7 10 0.8
v 0.7 10 0.7
v 0.7 10.2 2.6
v 0.7 10.2 0.8
v 0.7 10.5 2.7
v 0.7 10.5 2.6
v 0.7 10.5 0.8
v 0.7 10.5 0.7
v 0.7 10.6 2.7
v 0.7 10.6 0.7
v -0.7 8.2 2.7
v -0.7 8.4 2.7
v -0.7 10.5 2.7
v -0.7 10.6 2.7
v -0.6 8.4 2.7
v -0.6 10.4 2.7
v -0.6 10.5 2.7
v -0.5 7.8 2.7
v -0.5 7.9 2.7
v -0.5 8.2 2.7
v -0.5 10.4 2.7
v -0.5 10.5 2.7
v -0.4 10.1 2.7
v -0.4 10.5 2.7
v -0.3 10 2.7
v -0.3 10.1 2.7
v -0.2 8.2 2.7
v -0.2 8.4 2.7
v 0.3 10 2.7
v 0.3 10.1 2.7
v 0.5 10 2.7
v 0.5 10.1 2.7
v 0.6 7.8 2.7
v 0.6 7.9 2.7
v 0.6 8.2 2.7
v 0.6 8.3 2.7
v 0.7 8.2 2.7
v 0.7 8.3 2.7
v 0.7 10 2.7
v 0.7 10.5 2.7
v 0.7 10.6 2.7
v -0.7 8.4 2.6
v -0.7 10.5 2.6
v -0.6 8.4 2.6
v -0.6 10.4 2.6
v -0.6 10.5 2.6
v -0.7 8.1 2.5
v -0.7 8.2 2.5
v -0.6 8.1 2.5
v -0.6 8.2 2.5
v -0.5 8.1 2.5
v -0.5 8.2 2.5
v -0.7 8 2.4
v -0.7 8.1 2.4
v -0.6 8 2.4
v -0.6 8.1 2.4
v -0.5 8 2.4
v -0.5 8.1 2.4
v -0.7 8 1
v -0.7 8.1 1
v -0.6 8 1
v -0.6 8.1 1
v -0.5 8 1
v -0.5 8.1 1
v -0.7 8.1 0.9
v -0.7 8.2 0.9
v -0.6 8.1 0.9
v -0.6 8.2 0.9
v -0.5 8.1 0.9
v -0.5 8.2 0.9
v -0.7 8.4 0.8
v -0.7 10.5 0.8
v -0.6 8.4 0.8
v -0.6 10.4 0.8
v -0.6 10.5 0.8
v -0.7 8.2 0.7
v -0.7 8.4 0.7
v -0.7 10.5 0.7
v -0.7 10.6 0.7
v -0.6 8.4 0.7
v -0.6 10.4 0.7
v -0.6 10.5 0.7
v -0.5 7.8 0.7
v -0.5 7.9 0.7
v -0.5 8.2 0.7
v -0.5 10.4 0.7
v -0.5 10.5 0.7
v -0.4 10.1 0.7
v -0.4 10.5 0.7
v -0.3 10 0.7
v -0.3 10.1 0.7
v -0.2 8.2 0.7
v -0.2 8.4 0.7
v 0.3 10 0.7
v 0.3 10.1 0.7
v 0.5 10 0.7
v 0.5 10.1 0.7
v 0.6 7.8 0.7
v 0.6 7.9 0.7
v 0.6 8.2 0.7
v 0.6 8.3 0.7
v 0.7 8.2 0.7
v 0.7 8.3 0.7
v 0.7 10 0.7
v 0.7 10.5 0.7
v 0.7 10.6 0.7
v -0.5 7.8 2.7
v 0.6 7.8 2.7
v -0.5 7.8 0.7
v 0.6 7.8 0.7
v -0.7 8 2.4
v -0.6 8 2.4
v -0.5 8 2.4
v -0.7 8 1
v -0.6 8 1
v -0.5 8 1
v -0.7 8.1 2.5
v -0.6 8.1 2.5
v -0.5 8.1 2.5
v -0.7 8.1 2.4
v -0.6 8.1 2.4
v -0.5 8.1 2.4
v -0.7 8.1 1
v -0.6 8.1 1
v -0.5 8.1 1
v -0.7 8.1 0.9
v -0.6 8.1 0.9
v -0.5 8.1 0.9
v -0.7 8.2 2.7
v -0.5 8.2 2.7
v 0.6 8.2 2.7
v 0.7 8.2 2.7
v -0.6 8.2 2.6
v -0.5 8.2 2.6
v -0.7 8.2 2.5
v -0.6 8.2 2.5
v -0.5 8.2 2.5
v -0.7 8.2 0.9
v -0.6 8.2 0.9
v -0.5 8.2 0.9
v -0.6 8.2 0.8
v -0.5 8.2 0.8
v -0.7 8.2 0.7
v -0.5 8.2 0.7
v 0.6 8.2 0.7
v 0.7 8.2 0.7
v -0.7 10.5 2.7
v -0.6 10.5 2.7
v -0.7 10.5 2.6
v -0.6 10.5 2.6
v -0.7 10.5 0.8
v -0.6 10.5 0.8
v -0.7 10.5 0.7
v -0.6 10.5 0.7
v -0.7 8.4 2.7
v -0.6 8.4 2.7
v -0.7 8.4 2.6
v -0.6 8.4 2.6
v -0.7 8.4 0.8
v -0.6 8.4 0.8
v -0.7 8.4 0.7
v -0.6 8.4 0.7
v -0.7 10.6 2.7
v 0.7 10.6 2.7
v -0.7 10.6 2.6
v 0.6 10.6 2.6
v -0.7 10.6 0.8
v 0.6 10.6 0.8
v -0.7 10.6 0.7
v 0.7 10.6 0.7

# faces
f 4/3/1 2/3/1 1/3/1
f 5/3/1 2/3/1 4/3/1
f 8/3/1 4/3/1 3/3/1
f 8/3/1 6/3/1 5/3/1
f 8/3/1 5/3/1 4/3/1
f 9/3/1 6/3/1 8/3/1
f 10/3/1 6/3/1 9/3/1
f 11/3/1 6/3/1 10/3/1
f 13/3/1 8/3/1 7/3/1
f 13/3/1 9/3/1 8/3/1
f 14/2/1 10/2/1 9/2/1
f 14/3/1 9/3/1 13/3/1
f 15/3/1 12/3/1 11/3/1
f 15/2/1 10/2/1 14/2/1
f 15/3/1 11/3/1 10/3/1
f 16/3/1 12/3/1 15/3/1
f 17/3/1 13/3/1 7/3/1
f 18/3/1 13/3/1 17/3/1
f 19/2/1 14/2/1 13/2/1
f 19/3/1 13/3/1 18/3/1
f 19/2/1 15/2/1 14/2/1
f 19/2/1 16/2/1 15/2/1
f 20/3/1 12/3/1 16/3/1
f 20/2/1 16/2/1 19/2/1
f 21/3/1 12/3/1 20/3/1
f 22/3/1 12/3/1 21/3/1
f 23/2/1 19/2/1 18/2/1
f 23/2/1 21/2/1 20/2/1
f 23/2/1 20/2/1 19/2/1
f 24/2/1 21/2/1 23/2/1
f 25/2/1 23/2/1 18/2/1
f 25/3/1 24/3/1 23/3/1
f 26/2/1 21/2/1 24/2/1
f 26/3/1 24/3/1 25/3/1
f 27/2/1 25/2/1 18/2/1
f 27/2/1 26/2/1 25/2/1
f 28/2/1 21/2/1 26/2/1
f 28/2/1 26/2/1 27/2/1
f 29/2/1 27/2/1 18/2/1
f 29/3/1 28/3/1 27/3/1
f 30/2/1 21/2/1 28/2/1
f 30/3/1 28/3/1 29/3/1
f 31/2/1 29/2/1 18/2/1
f 31/2/1 30/2/1 29/2/1
f 32/2/1 21/2/1 30/2/1
f 32/2/1 30/2/1 31/2/1
f 33/2/1 31/2/1 18/2/1
f 33/3/1 32/3/1 31/3/1
f 34/2/1 21/2/1 32/2/1
f 34/3/1 32/3/1 33/3/1
f 35/2/1 33/2/1 18/2/1
f 35/2/1 34/2/1 33/2/1
f 36/2/1 21/2/1 34/2/1
f 36/2/1 34/2/1 35/2/1
f 37/2/1 35/2/1 18/2/1
f 37/3/1 36/3/1 35/3/1
f 38/2/1 21/2/1 36/2/1
f 38/3/1 36/3/1 37/3/1
f 40/2/1 37/2/1 18/2/1
f 40/2/1 38/2/1 37/2/1
f 41/2/1 21/2/1 38/2/1
f 41/2/1 38/2/1 40/2/1
f 43/3/1 40/3/1 39/3/1
f 44/1/1 41/1/1 40/1/1
f 44/3/1 40/3/1 43/3/1
f 45/3/1 42/3/1 41/3/1
f 45/1/1 41/1/1 44/1/1
f 46/3/1 42/3/1 45/3/1
f 51/2/1 48/2/1 47/2/1
f 52/2/1 48/2/1 51/2/1
f 53/2/1 50/2/1 49/2/1
f 54/2/1 50/2/1 53/2/1
f 55/3/1 52/3/1 51/3/1
f 56/3/1 52/3/1 55/3/1
f 57/3/1 54/3/1 53/3/1
f 58/3/1 54/3/1 57/3/1
f 61/1/1 60/1/1 59/1/1
f 62/1/1 60/1/1 61/1/1
f 63/2/1 62/2/1 61/2/1
f 64/2/1 62/2/1 63/2/1
f 65/2/1 63/2/1 61/2/1
f 66/2/1 63/2/1 65/2/1
f 67/2/1 62/2/1 64/2/1
f 68/2/1 62/2/1 67/2/1
f 69/2/1 65/2/1 61/2/1
f 70/2/1 65/2/1 69/2/1
f 71/2/1 65/2/1 70/2/1
f 72/2/1 62/2/1 68/2/1
f 73/2/1 62/2/1 72/2/1
f 74/2/1 62/2/1 73/2/1
f 75/1/2 76/1/2 77/1/2
f 77/1/2 76/1/2 78/1/2
f 77/2/2 78/2/2 79/2/2
f 79/2/2 78/2/2 80/2/2
f 81/3/2 82/3/2 83/3/2
f 83/3/2 82/3/2 84/3/2
f 83/2/2 84/2/2 85/2/2
f 85/2/2 84/2/2 86/2/2
f 86/2/2 84/2/2 87/2/2
f 87/2/2 84/2/2 88/2/2
f 85/1/2 86/1/2 89/1/2
f 86/2/2 87/2/2 89/2/2
f 87/1/2 88/1/2 90/1/2
f 89/2/2 87/2/2 90/2/2
f 85/1/2 89/1/2 91/1/2
f 89/3/2 90/3/2 92/3/2
f 91/1/2 89/1/2 92/1/2
f 90/1/2 88/1/2 93/1/2
f 92/3/2 90/3/2 93/3/2
f 93/1/2 88/1/2 94/1/2
f 91/3/2 92/3/2 95/3/2
f 92/3/2 93/3/2 95/3/2
f 93/3/2 94/3/2 95/3/2
f 95/3/2 94/3/2 96/3/2
f 101/3/3 98/3/3 97/3/3
f 103/3/3 100/3/3 99/3/3
f 106/3/3 101/3/3 97/3/3
f 107/2/3 102/2/3 101/2/3
f 107/3/3 103/3/3 102/3/3
f 108/3/3 100/3/3 103/3/3
f 108/3/3 103/3/3 107/3/3
f 109/2/3 107/2/3 101/2/3
f 109/2/3 108/2/3 107/2/3
f 110/3/3 100/3/3 108/3/3
f 110/2/3 108/2/3 109/2/3
f 111/2/3 109/2/3 101/2/3
f 112/1/3 110/1/3 109/1/3
f 112/2/3 109/2/3 111/2/3
f 113/2/3 106/2/3 105/2/3
f 113/3/3 101/3/3 106/3/3
f 114/2/3 111/2/3 101/2/3
f 114/3/3 101/3/3 113/3/3
f 115/1/3 112/1/3 111/1/3
f 115/2/3 111/2/3 114/2/3
f 115/2/3 114/2/3 113/2/3
f 116/1/3 110/1/3 112/1/3
f 116/1/3 112/1/3 115/1/3
f 117/2/3 115/2/3 113/2/3
f 117/2/3 116/2/3 115/2/3
f 118/1/3 110/1/3 116/1/3
f 118/2/3 116/2/3 117/2/3
f 119/1/3 105/1/3 104/1/3
f 120/2/3 117/2/3 113/2/3
f 120/1/3 105/1/3 119/1/3
f 120/2/3 113/2/3 105/2/3
f 121/2/3 117/2/3 120/2/3
f 122/2/3 117/2/3 121/2/3
f 123/3/3 122/3/3 121/3/3
f 124/2/3 117/2/3 122/2/3
f 124/3/3 122/3/3 123/3/3
f 125/1/3 118/1/3 117/1/3
f 125/2/3 117/2/3 124/2/3
f 126/1/3 110/1/3 118/1/3
f 126/1/3 118/1/3 125/1/3
f 126/3/3 100/3/3 110/3/3
f 127/3/3 100/3/3 126/3/3
f 130/2/3 129/2/3 128/2/3
f 131/2/3 129/2/3 130/2/3
f 132/2/3 129/2/3 131/2/3
f 135/3/3 134/3/3 133/3/3
f 136/3/3 134/3/3 135/3/3
f 137/2/3 136/2/3 135/2/3
f 138/2/3 136/2/3 137/2/3
f 141/3/3 140/3/3 139/3/3
f 142/3/3 140/3/3 141/3/3
f 143/2/3 142/2/3 141/2/3
f 144/2/3 142/2/3 143/2/3
f 145/3/4 146/3/4 147/3/4
f 147/3/4 146/3/4 148/3/4
f 147/2/4 148/2/4 149/2/4
f 149/2/4 148/2/4 150/2/4
f 151/3/4 152/3/4 153/3/4
f 153/3/4 152/3/4 154/3/4
f 153/2/4 154/2/4 155/2/4
f 155/2/4 154/2/4 156/2/4
f 157/2/4 158/2/4 159/2/4
f 159/2/4 158/2/4 160/2/4
f 160/2/4 158/2/4 161/2/4
f 162/3/4 163/3/4 166/3/4
f 164/3/4 165/3/4 168/3/4
f 162/3/4 166/3/4 171/3/4
f 166/2/4 167/2/4 172/2/4
f 167/3/4 168/3/4 172/3/4
f 168/3/4 165/3/4 173/3/4
f 172/3/4 168/3/4 173/3/4
f 166/2/4 172/2/4 174/2/4
f 172/2/4 173/2/4 174/2/4
f 173/3/4 165/3/4 175/3/4
f 174/2/4 173/2/4 175/2/4
f 166/2/4 174/2/4 176/2/4
f 174/1/4 175/1/4 177/1/4
f 176/2/4 174/2/4 177/2/4
f 170/2/4 171/2/4 178/2/4
f 171/3/4 166/3/4 178/3/4
f 166/2/4 176/2/4 179/2/4
f 178/3/4 166/3/4 179/3/4
f 176/1/4 177/1/4 180/1/4
f 179/2/4 176/2/4 180/2/4
f 178/2/4 179/2/4 180/2/4
f 177/1/4 175/1/4 181/1/4
f 180/1/4 177/1/4 181/1/4
f 178/2/4 180/2/4 182/2/4
f 180/2/4 181/2/4 182/2/4
f 181/1/4 175/1/4 183/1/4
f 182/2/4 181/2/4 183/2/4
f 169/1/4 170/1/4 184/1/4
f 178/2/4 182/2/4 185/2/4
f 184/1/4 170/1/4 185/1/4
f 170/2/4 178/2/4 185/2/4
f 185/2/4 182/2/4 186/2/4
f 186/2/4 182/2/4 187/2/4
f 186/3/4 187/3/4 188/3/4
f 187/2/4 182/2/4 189/2/4
f 188/3/4 187/3/4 189/3/4
f 182/1/4 183/1/4 190/1/4
f 189/2/4 182/2/4 190/2/4
f 183/1/4 175/1/4 191/1/4
f 190/1/4 183/1/4 191/1/4
f 175/3/4 165/3/4 191/3/4
f 191/3/4 165/3/4 192/3/4
f 195/1/5 194/1/5 193/1/5
f 196/1/5 194/1/5 195/1/5
f 200/3/5 198/3/5 197/3/5
f 201/2/5 199/2/5 198/2/5
f 201/3/5 198/3/5 200/3/5
f 202/2/5 199/2/5 201/2/5
f 206/3/5 204/3/5 203/3/5
f 207/2/5 205/2/5 204/2/5
f 207/3/5 204/3/5 206/3/5
f 208/2/5 205/2/5 207/2/5
f 212/3/5 210/3/5 209/3/5
f 213/2/5 211/2/5 210/2/5
f 213/3/5 210/3/5 212/3/5
f 214/2/5 211/2/5 213/2/5
f 219/3/5 216/3/5 215/3/5
f 220/3/5 216/3/5 219/3/5
f 221/3/5 219/3/5 215/3/5
f 222/2/5 220/2/5 219/2/5
f 222/3/5 219/3/5 221/3/5
f 223/2/5 220/2/5 222/2/5
f 227/3/5 225/3/5 224/3/5
f 227/2/5 226/2/5 225/2/5
f 228/2/5 226/2/5 227/2/5
f 229/3/5 227/3/5 224/3/5
f 229/3/5 228/3/5 227/3/5
f 230/3/5 228/3/5 229/3/5
f 231/3/5 218/3/5 217/3/5
f 232/3/5 218/3/5 231/3/5
f 235/3/5 234/3/5 233/3/5
f 236/3/5 234/3/5 235/3/5
f 239/3/5 238/3/5 237/3/5
f 240/3/5 238/3/5 239/3/5
f 241/3/6 242/3/6 243/3/6
f 243/3/6 242/3/6 244/3/6
f 245/3/6 246/3/6 247/3/6
f 247/3/6 246/3/6 248/3/6
f 249/3/6 250/3/6 251/3/6
f 251/3/6 250/3/6 252/3/6
f 251/1/6 252/1/6 253/1/6
f 252/3/6 250/3/6 254/3/6
f 253/1/6 252/1/6 254/1/6
f 253/3/6 254/3/6 255/3/6
f 254/3/6 250/3/6 256/3/6
f 255/3/6 254/3/6 256/3/6
