# MagicaVoxel @ Ephtracy

# group
o 

# material
mtllib 8x8x8.mtl
usemtl palette

# normals
vn -1 0 0
vn 1 0 0
vn 0 0 1
vn 0 0 -1
vn 0 -1 0
vn 0 1 0

# texcoords
vt 0.205078 0.5
vt 0.986328 0.5

# verts
v -2.6 -2 1.9
v -2.6 -2 -2
v -2.6 -1.1 1.9
v -2.6 -1.1 -2
v -2.6 2.8 1.9
v -2.6 2.8 -2
v -1.9 -2 1.9
v -1.9 -2 1.7
v -1.9 -1.1 1.9
v -1.9 -1.1 1.8
v -1.9 -1.1 1.7
v -1.4 -2 1.9
v -1.4 -2 1.8
v -1.4 -1.1 1.9
v -1.4 -1.1 1.8
v -0.9 -2 1.9
v -0.9 -2 1.8
v -0.9 -1.1 1.9
v -0.9 -1.1 1.8
v -0.4 -2 1.9
v -0.4 -2 1.6
v -0.4 -1.1 1.9
v -0.4 -1.1 1.6
v 0.0999999 -2 1.9
v 0.0999999 -2 1.6
v 0.0999999 -1.1 1.9
v 0.0999999 -1.1 1.6
v 0.6 -2 1.9
v 0.6 -2 1.8
v 0.6 -1.1 1.9
v 0.6 -1.1 1.8
v 1.1 -2 1.9
v 1.1 -2 1.8
v 1.1 -1.1 1.9
v 1.1 -1.1 1.8
v 1.6 -2 1.9
v 1.6 -2 1.6
v 1.6 -1.1 1.9
v 1.6 -1.1 1.6
v 2.1 -2 1.9
v 2.1 -2 1.8
v 2.1 -1.1 1.9
v 2.1 -1.1 1.8
v -2.2 -2 1.9
v -2.2 -2 1.7
v -2.2 -1.1 1.9
v -2.2 -1.1 1.8
v -2.2 -1.1 1.7
v -1.7 -2 1.9
v -1.7 -2 1.8
v -1.7 -1.1 1.9
v -1.7 -1.1 1.8
v -1.2 -2 1.9
v -1.2 -2 1.8
v -1.2 -1.1 1.9
v -1.2 -1.1 1.8
v -0.7 -2 1.9
v -0.7 -2 1.6
v -0.7 -1.1 1.9
v -0.7 -1.1 1.6
v -0.2 -2 1.9
v -0.2 -2 1.6
v -0.2 -1.1 1.9
v -0.2 -1.1 1.6
v 0.3 -2 1.9
v 0.3 -2 1.8
v 0.3 -1.1 1.9
v 0.3 -1.1 1.8
v 0.8 -2 1.9
v 0.8 -2 1.8
v 0.8 -1.1 1.9
v 0.8 -1.1 1.8
v 1.3 -2 1.9
v 1.3 -2 1.6
v 1.3 -1.1 1.9
v 1.3 -1.1 1.6
v 1.8 -2 1.9
v 1.8 -2 1.8
v 1.8 -1.1 1.9
v 1.8 -1.1 1.8
v 2.7 -2 1.9
v 2.7 -2 -2
v 2.7 -1.1 1.9
v 2.7 -1.1 -2
v 2.7 2.8 1.9
v 2.7 2.8 -2
v -2.6 -2 1.9
v -2.6 -1.1 1.9
v -2.6 2.8 1.9
v -2.2 -2 1.9
v -2.2 -1.1 1.9
v -2.2 -0.8 1.9
v -2.2 -0.6 1.9
v -2.2 -0.3 1.9
v -2.2 -0.0999999 1.9
v -2.2 0.2 1.9
v -2.2 0.4 1.9
v -2.2 0.7 1.9
v -2.2 0.9 1.9
v -2.2 1.2 1.9
v -2.2 1.4 1.9
v -2.2 1.7 1.9
v -2.2 1.9 1.9
v -2.2 2.2 1.9
v -2.2 2.4 1.9
v -2.2 2.7 1.9
v -1.9 -2 1.9
v -1.9 -1.1 1.9
v -1.9 -0.8 1.9
v -1.9 -0.6 1.9
v -1.9 -0.3 1.9
v -1.9 -0.0999999 1.9
v -1.9 0.2 1.9
v -1.9 0.4 1.9
v -1.9 0.7 1.9
v -1.9 0.9 1.9
v -1.9 1.2 1.9
v -1.9 1.4 1.9
v -1.9 1.7 1.9
v -1.9 1.9 1.9
v -1.9 2.2 1.9
v -1.9 2.4 1.9
v -1.9 2.7 1.9
v -1.7 -2 1.9
v -1.7 -1.1 1.9
v -1.7 -0.8 1.9
v -1.7 -0.6 1.9
v -1.7 -0.3 1.9
v -1.7 -0.0999999 1.9
v -1.7 0.2 1.9
v -1.7 0.4 1.9
v -1.7 0.7 1.9
v -1.7 0.9 1.9
v -1.7 1.2 1.9
v -1.7 1.4 1.9
v -1.7 1.7 1.9
v -1.7 1.9 1.9
v -1.7 2.2 1.9
v -1.7 2.4 1.9
v -1.7 2.7 1.9
v -1.4 -2 1.9
v -1.4 -1.1 1.9
v -1.4 -0.8 1.9
v -1.4 -0.6 1.9
v -1.4 -0.3 1.9
v -1.4 -0.0999999 1.9
v -1.4 0.2 1.9
v -1.4 0.4 1.9
v -1.4 0.7 1.9
v -1.4 0.9 1.9
v -1.4 1.2 1.9
v -1.4 1.4 1.9
v -1.4 1.7 1.9
v -1.4 1.9 1.9
v -1.4 2.2 1.9
v -1.4 2.4 1.9
v -1.4 2.7 1.9
v -1.2 -2 1.9
v -1.2 -1.1 1.9
v -1.2 -0.8 1.9
v -1.2 -0.6 1.9
v -1.2 -0.3 1.9
v -1.2 -0.0999999 1.9
v -1.2 0.2 1.9
v -1.2 0.4 1.9
v -1.2 0.7 1.9
v -1.2 0.9 1.9
v -1.2 1.2 1.9
v -1.2 1.4 1.9
v -1.2 1.7 1.9
v -1.2 1.9 1.9
v -1.2 2.2 1.9
v -1.2 2.4 1.9
v -1.2 2.7 1.9
v -0.9 -2 1.9
v -0.9 -1.1 1.9
v -0.9 -0.8 1.9
v -0.9 -0.6 1.9
v -0.9 -0.3 1.9
v -0.9 -0.0999999 1.9
v -0.9 0.2 1.9
v -0.9 0.4 1.9
v -0.9 0.7 1.9
v -0.9 0.9 1.9
v -0.9 1.2 1.9
v -0.9 1.4 1.9
v -0.9 1.7 1.9
v -0.9 1.9 1.9
v -0.9 2.2 1.9
v -0.9 2.4 1.9
v -0.9 2.7 1.9
v -0.7 -2 1.9
v -0.7 -1.1 1.9
v -0.7 -0.8 1.9
v -0.7 -0.6 1.9
v -0.7 -0.3 1.9
v -0.7 -0.0999999 1.9
v -0.7 0.2 1.9
v -0.7 0.4 1.9
v -0.7 0.7 1.9
v -0.7 0.9 1.9
v -0.7 1.2 1.9
v -0.7 1.4 1.9
v -0.7 1.7 1.9
v -0.7 1.9 1.9
v -0.7 2.2 1.9
v -0.7 2.4 1.9
v -0.7 2.7 1.9
v -0.4 -2 1.9
v -0.4 -1.1 1.9
v -0.4 -0.8 1.9
v -0.4 -0.6 1.9
v -0.4 -0.3 1.9
v -0.4 -0.0999999 1.9
v -0.4 0.2 1.9
v -0.4 0.4 1.9
v -0.4 0.7 1.9
v -0.4 0.9 1.9
v -0.4 1.2 1.9
v -0.4 1.4 1.9
v -0.4 1.7 1.9
v -0.4 1.9 1.9
v -0.4 2.2 1.9
v -0.4 2.4 1.9
v -0.4 2.7 1.9
v -0.2 -2 1.9
v -0.2 -1.1 1.9
v -0.2 -0.8 1.9
v -0.2 -0.6 1.9
v -0.2 -0.3 1.9
v -0.2 -0.0999999 1.9
v -0.2 0.2 1.9
v -0.2 0.4 1.9
v -0.2 0.7 1.9
v -0.2 0.9 1.9
v -0.2 1.2 1.9
v -0.2 1.4 1.9
v -0.2 1.7 1.9
v -0.2 1.9 1.9
v -0.2 2.2 1.9
v -0.2 2.4 1.9
v -0.2 2.7 1.9
v 0.0999999 -2 1.9
v 0.0999999 -1.1 1.9
v 0.0999999 -0.8 1.9
v 0.0999999 -0.6 1.9
v 0.0999999 -0.3 1.9
v 0.0999999 -0.0999999 1.9
v 0.0999999 0.2 1.9
v 0.0999999 0.4 1.9
v 0.0999999 0.7 1.9
v 0.0999999 0.9 1.9
v 0.0999999 1.2 1.9
v 0.0999999 1.4 1.9
v 0.0999999 1.7 1.9
v 0.0999999 1.9 1.9
v 0.0999999 2.2 1.9
v 0.0999999 2.4 1.9
v 0.0999999 2.7 1.9
v 0.3 -2 1.9
v 0.3 -1.1 1.9
v 0.3 -0.8 1.9
v 0.3 -0.6 1.9
v 0.3 -0.3 1.9
v 0.3 -0.0999999 1.9
v 0.3 0.2 1.9
v 0.3 0.4 1.9
v 0.3 0.7 1.9
v 0.3 0.9 1.9
v 0.3 1.2 1.9
v 0.3 1.4 1.9
v 0.3 1.7 1.9
v 0.3 1.9 1.9
v 0.3 2.2 1.9
v 0.3 2.4 1.9
v 0.3 2.7 1.9
v 0.6 -2 1.9
v 0.6 -1.1 1.9
v 0.6 -0.8 1.9
v 0.6 -0.6 1.9
v 0.6 -0.3 1.9
v 0.6 -0.0999999 1.9
v 0.6 0.2 1.9
v 0.6 0.4 1.9
v 0.6 0.7 1.9
v 0.6 0.9 1.9
v 0.6 1.2 1.9
v 0.6 1.4 1.9
v 0.6 1.7 1.9
v 0.6 1.9 1.9
v 0.6 2.2 1.9
v 0.6 2.4 1.9
v 0.6 2.7 1.9
v 0.8 -2 1.9
v 0.8 -1.1 1.9
v 0.8 -0.8 1.9
v 0.8 -0.6 1.9
v 0.8 -0.3 1.9
v 0.8 -0.0999999 1.9
v 0.8 0.2 1.9
v 0.8 0.4 1.9
v 0.8 0.7 1.9
v 0.8 0.9 1.9
v 0.8 1.2 1.9
v 0.8 1.4 1.9
v 0.8 1.7 1.9
v 0.8 1.9 1.9
v 0.8 2.2 1.9
v 0.8 2.4 1.9
v 0.8 2.7 1.9
v 1.1 -2 1.9
v 1.1 -1.1 1.9
v 1.1 -0.8 1.9
v 1.1 -0.6 1.9
v 1.1 -0.3 1.9
v 1.1 -0.0999999 1.9
v 1.1 0.2 1.9
v 1.1 0.4 1.9
v 1.1 0.7 1.9
v 1.1 0.9 1.9
v 1.1 1.2 1.9
v 1.1 1.4 1.9
v 1.1 1.7 1.9
v 1.1 1.9 1.9
v 1.1 2.2 1.9
v 1.1 2.4 1.9
v 1.1 2.7 1.9
v 1.3 -2 1.9
v 1.3 -1.1 1.9
v 1.3 -0.8 1.9
v 1.3 -0.6 1.9
v 1.3 -0.3 1.9
v 1.3 -0.0999999 1.9
v 1.3 0.2 1.9
v 1.3 0.4 1.9
v 1.3 0.7 1.9
v 1.3 0.9 1.9
v 1.3 1.2 1.9
v 1.3 1.4 1.9
v 1.3 1.7 1.9
v 1.3 1.9 1.9
v 1.3 2.2 1.9
v 1.3 2.4 1.9
v 1.3 2.7 1.9
v 1.6 -2 1.9
v 1.6 -1.1 1.9
v 1.6 -0.8 1.9
v 1.6 -0.6 1.9
v 1.6 -0.3 1.9
v 1.6 -0.0999999 1.9
v 1.6 0.2 1.9
v 1.6 0.4 1.9
v 1.6 0.7 1.9
v 1.6 0.9 1.9
v 1.6 1.2 1.9
v 1.6 1.4 1.9
v 1.6 1.7 1.9
v 1.6 1.9 1.9
v 1.6 2.2 1.9
v 1.6 2.4 1.9
v 1.6 2.7 1.9
v 1.8 -2 1.9
v 1.8 -1.1 1.9
v 1.8 -0.8 1.9
v 1.8 -0.6 1.9
v 1.8 -0.3 1.9
v 1.8 -0.0999999 1.9
v 1.8 0.2 1.9
v 1.8 0.4 1.9
v 1.8 0.7 1.9
v 1.8 0.9 1.9
v 1.8 1.2 1.9
v 1.8 1.4 1.9
v 1.8 1.7 1.9
v 1.8 1.9 1.9
v 1.8 2.2 1.9
v 1.8 2.4 1.9
v 1.8 2.7 1.9
v 2.1 -2 1.9
v 2.1 -1.1 1.9
v 2.1 -0.8 1.9
v 2.1 -0.6 1.9
v 2.1 -0.3 1.9
v 2.1 -0.0999999 1.9
v 2.1 0.2 1.9
v 2.1 0.4 1.9
v 2.1 0.7 1.9
v 2.1 0.9 1.9
v 2.1 1.2 1.9
v 2.1 1.4 1.9
v 2.1 1.7 1.9
v 2.1 1.9 1.9
v 2.1 2.2 1.9
v 2.1 2.4 1.9
v 2.1 2.7 1.9
v 2.7 -2 1.9
v 2.7 -1.1 1.9
v 2.7 2.8 1.9
v -1.7 -2 1.8
v -1.7 -1.1 1.8
v -1.4 -2 1.8
v -1.4 -1.1 1.8
v -1.2 -2 1.8
v -1.2 -1.1 1.8
v -0.9 -2 1.8
v -0.9 -1.1 1.8
v 0.3 -2 1.8
v 0.3 -1.1 1.8
v 0.6 -2 1.8
v 0.6 -1.1 1.8
v 0.8 -2 1.8
v 0.8 -1.1 1.8
v 1.1 -2 1.8
v 1.1 -1.1 1.8
v 1.8 -2 1.8
v 1.8 -1.1 1.8
v 2.1 -2 1.8
v 2.1 -1.1 1.8
v -2.2 -2 1.7
v -2.2 -1.1 1.7
v -1.9 -2 1.7
v -1.9 -1.1 1.7
v -0.7 -2 1.6
v -0.7 -1.1 1.6
v -0.4 -2 1.6
v -0.4 -1.1 1.6
v -0.2 -2 1.6
v -0.2 -1.1 1.6
v 0.0999999 -2 1.6
v 0.0999999 -1.1 1.6
v 1.3 -2 1.6
v 1.3 -1.1 1.6
v 1.6 -2 1.6
v 1.6 -1.1 1.6
v -2.6 -2 -2
v -2.6 -1.1 -2
v -2.6 2.8 -2
v 2.7 -2 -2
v 2.7 -1.1 -2
v 2.7 2.8 -2
v -2.6 -2 1.9
v -2.2 -2 1.9
v -1.9 -2 1.9
v -1.7 -2 1.9
v -1.4 -2 1.9
v -1.2 -2 1.9
v -0.9 -2 1.9
v -0.7 -2 1.9
v -0.4 -2 1.9
v -0.2 -2 1.9
v 0.0999999 -2 1.9
v 0.3 -2 1.9
v 0.6 -2 1.9
v 0.8 -2 1.9
v 1.1 -2 1.9
v 1.3 -2 1.9
v 1.6 -2 1.9
v 1.8 -2 1.9
v 2.1 -2 1.9
v 2.7 -2 1.9
v -1.7 -2 1.8
v -1.4 -2 1.8
v -1.2 -2 1.8
v -0.9 -2 1.8
v 0.3 -2 1.8
v 0.6 -2 1.8
v 0.8 -2 1.8
v 1.1 -2 1.8
v 1.8 -2 1.8
v 2.1 -2 1.8
v -2.2 -2 1.7
v -1.9 -2 1.7
v -1.7 -2 1.6
v -1.4 -2 1.6
v -1.2 -2 1.6
v -0.9 -2 1.6
v -0.7 -2 1.6
v -0.4 -2 1.6
v -0.2 -2 1.6
v 0.0999999 -2 1.6
v 0.3 -2 1.6
v 0.6 -2 1.6
v 0.8 -2 1.6
v 1.1 -2 1.6
v 1.3 -2 1.6
v 1.6 -2 1.6
v 1.8 -2 1.6
v 2.1 -2 1.6
v -2.6 -2 -2
v 2.7 -2 -2
v -2.2 -1.1 1.9
v -1.9 -1.1 1.9
v -1.7 -1.1 1.9
v -1.4 -1.1 1.9
v -1.2 -1.1 1.9
v -0.9 -1.1 1.9
v -0.7 -1.1 1.9
v -0.4 -1.1 1.9
v -0.2 -1.1 1.9
v 0.0999999 -1.1 1.9
v 0.3 -1.1 1.9
v 0.6 -1.1 1.9
v 0.8 -1.1 1.9
v 1.1 -1.1 1.9
v 1.3 -1.1 1.9
v 1.6 -1.1 1.9
v 1.8 -1.1 1.9
v 2.1 -1.1 1.9
v -2.2 -1.1 1.8
v -1.9 -1.1 1.8
v -1.7 -1.1 1.8
v -1.4 -1.1 1.8
v -1.2 -1.1 1.8
v -0.9 -1.1 1.8
v 0.3 -1.1 1.8
v 0.6 -1.1 1.8
v 0.8 -1.1 1.8
v 1.1 -1.1 1.8
v 1.8 -1.1 1.8
v 2.1 -1.1 1.8
v -2.2 -1.1 1.7
v -1.9 -1.1 1.7
v -0.7 -1.1 1.6
v -0.4 -1.1 1.6
v -0.2 -1.1 1.6
v 0.0999999 -1.1 1.6
v 1.3 -1.1 1.6
v 1.6 -1.1 1.6
v -2.6 2.8 1.9
v 2.7 2.8 1.9
v -2.6 2.8 -2
v 2.7 2.8 -2

# faces
f 3/1/1 2/1/1 1/1/1
f 4/1/1 2/1/1 3/1/1
f 5/2/1 4/2/1 3/2/1
f 6/2/1 4/2/1 5/2/1
f 9/1/1 8/1/1 7/1/1
f 10/1/1 8/1/1 9/1/1
f 11/1/1 8/1/1 10/1/1
f 14/1/1 13/1/1 12/1/1
f 15/1/1 13/1/1 14/1/1
f 18/1/1 17/1/1 16/1/1
f 19/1/1 17/1/1 18/1/1
f 22/1/1 21/1/1 20/1/1
f 23/1/1 21/1/1 22/1/1
f 26/1/1 25/1/1 24/1/1
f 27/1/1 25/1/1 26/1/1
f 30/1/1 29/1/1 28/1/1
f 31/1/1 29/1/1 30/1/1
f 34/1/1 33/1/1 32/1/1
f 35/1/1 33/1/1 34/1/1
f 38/1/1 37/1/1 36/1/1
f 39/1/1 37/1/1 38/1/1
f 42/1/1 41/1/1 40/1/1
f 43/1/1 41/1/1 42/1/1
f 44/1/2 45/1/2 46/1/2
f 46/1/2 45/1/2 47/1/2
f 47/1/2 45/1/2 48/1/2
f 49/1/2 50/1/2 51/1/2
f 51/1/2 50/1/2 52/1/2
f 53/1/2 54/1/2 55/1/2
f 55/1/2 54/1/2 56/1/2
f 57/1/2 58/1/2 59/1/2
f 59/1/2 58/1/2 60/1/2
f 61/1/2 62/1/2 63/1/2
f 63/1/2 62/1/2 64/1/2
f 65/1/2 66/1/2 67/1/2
f 67/1/2 66/1/2 68/1/2
f 69/1/2 70/1/2 71/1/2
f 71/1/2 70/1/2 72/1/2
f 73/1/2 74/1/2 75/1/2
f 75/1/2 74/1/2 76/1/2
f 77/1/2 78/1/2 79/1/2
f 79/1/2 78/1/2 80/1/2
f 81/1/2 82/1/2 83/1/2
f 83/1/2 82/1/2 84/1/2
f 83/2/2 84/2/2 85/2/2
f 85/2/2 84/2/2 86/2/2
f 90/1/3 88/1/3 87/1/3
f 91/2/3 89/2/3 88/2/3
f 91/1/3 88/1/3 90/1/3
f 92/2/3 89/2/3 91/2/3
f 93/2/3 89/2/3 92/2/3
f 94/2/3 89/2/3 93/2/3
f 95/2/3 89/2/3 94/2/3
f 96/2/3 89/2/3 95/2/3
f 97/2/3 89/2/3 96/2/3
f 98/2/3 89/2/3 97/2/3
f 99/2/3 89/2/3 98/2/3
f 100/2/3 89/2/3 99/2/3
f 101/2/3 89/2/3 100/2/3
f 102/2/3 89/2/3 101/2/3
f 103/2/3 89/2/3 102/2/3
f 104/2/3 89/2/3 103/2/3
f 105/2/3 89/2/3 104/2/3
f 106/2/3 89/2/3 105/2/3
f 108/1/3 92/1/3 91/1/3
f 109/2/3 93/2/3 92/2/3
f 109/1/3 92/1/3 108/1/3
f 110/1/3 94/1/3 93/1/3
f 110/2/3 93/2/3 109/2/3
f 111/2/3 95/2/3 94/2/3
f 111/1/3 94/1/3 110/1/3
f 112/1/3 96/1/3 95/1/3
f 112/2/3 95/2/3 111/2/3
f 113/2/3 97/2/3 96/2/3
f 113/1/3 96/1/3 112/1/3
f 114/1/3 98/1/3 97/1/3
f 114/2/3 97/2/3 113/2/3
f 115/2/3 99/2/3 98/2/3
f 115/1/3 98/1/3 114/1/3
f 116/1/3 100/1/3 99/1/3
f 116/2/3 99/2/3 115/2/3
f 117/2/3 101/2/3 100/2/3
f 117/1/3 100/1/3 116/1/3
f 118/1/3 102/1/3 101/1/3
f 118/2/3 101/2/3 117/2/3
f 119/2/3 103/2/3 102/2/3
f 119/1/3 102/1/3 118/1/3
f 120/1/3 104/1/3 103/1/3
f 120/2/3 103/2/3 119/2/3
f 121/2/3 105/2/3 104/2/3
f 121/1/3 104/1/3 120/1/3
f 122/1/3 106/1/3 105/1/3
f 122/2/3 105/2/3 121/2/3
f 123/2/3 89/2/3 106/2/3
f 123/1/3 106/1/3 122/1/3
f 124/1/3 108/1/3 107/1/3
f 125/2/3 122/2/3 121/2/3
f 125/1/3 108/1/3 124/1/3
f 125/2/3 121/2/3 120/2/3
f 125/2/3 123/2/3 122/2/3
f 125/2/3 109/2/3 108/2/3
f 125/2/3 120/2/3 119/2/3
f 125/2/3 119/2/3 118/2/3
f 125/2/3 118/2/3 117/2/3
f 125/2/3 117/2/3 116/2/3
f 125/2/3 116/2/3 115/2/3
f 125/2/3 115/2/3 114/2/3
f 125/2/3 114/2/3 113/2/3
f 125/2/3 113/2/3 112/2/3
f 125/2/3 112/2/3 111/2/3
f 125/2/3 111/2/3 110/2/3
f 125/2/3 110/2/3 109/2/3
f 126/2/3 123/2/3 125/2/3
f 127/2/3 123/2/3 126/2/3
f 128/2/3 123/2/3 127/2/3
f 129/2/3 123/2/3 128/2/3
f 130/2/3 123/2/3 129/2/3
f 131/2/3 123/2/3 130/2/3
f 132/2/3 123/2/3 131/2/3
f 133/2/3 123/2/3 132/2/3
f 134/2/3 123/2/3 133/2/3
f 135/2/3 123/2/3 134/2/3
f 136/2/3 123/2/3 135/2/3
f 137/2/3 123/2/3 136/2/3
f 138/2/3 123/2/3 137/2/3
f 139/2/3 123/2/3 138/2/3
f 140/2/3 89/2/3 123/2/3
f 140/2/3 123/2/3 139/2/3
f 142/1/3 126/1/3 125/1/3
f 143/2/3 127/2/3 126/2/3
f 143/1/3 126/1/3 142/1/3
f 144/1/3 128/1/3 127/1/3
f 144/2/3 127/2/3 143/2/3
f 145/2/3 129/2/3 128/2/3
f 145/1/3 128/1/3 144/1/3
f 146/1/3 130/1/3 129/1/3
f 146/2/3 129/2/3 145/2/3
f 147/2/3 131/2/3 130/2/3
f 147/1/3 130/1/3 146/1/3
f 148/1/3 132/1/3 131/1/3
f 148/2/3 131/2/3 147/2/3
f 149/2/3 133/2/3 132/2/3
f 149/1/3 132/1/3 148/1/3
f 150/1/3 134/1/3 133/1/3
f 150/2/3 133/2/3 149/2/3
f 151/2/3 135/2/3 134/2/3
f 151/1/3 134/1/3 150/1/3
f 152/1/3 136/1/3 135/1/3
f 152/2/3 135/2/3 151/2/3
f 153/2/3 137/2/3 136/2/3
f 153/1/3 136/1/3 152/1/3
f 154/1/3 138/1/3 137/1/3
f 154/2/3 137/2/3 153/2/3
f 155/2/3 139/2/3 138/2/3
f 155/1/3 138/1/3 154/1/3
f 156/1/3 140/1/3 139/1/3
f 156/2/3 139/2/3 155/2/3
f 157/2/3 89/2/3 140/2/3
f 157/1/3 140/1/3 156/1/3
f 158/1/3 142/1/3 141/1/3
f 159/2/3 154/2/3 153/2/3
f 159/1/3 142/1/3 158/1/3
f 159/2/3 156/2/3 155/2/3
f 159/2/3 157/2/3 156/2/3
f 159/2/3 155/2/3 154/2/3
f 159/2/3 153/2/3 152/2/3
f 159/2/3 152/2/3 151/2/3
f 159/2/3 151/2/3 150/2/3
f 159/2/3 150/2/3 149/2/3
f 159/2/3 149/2/3 148/2/3
f 159/2/3 148/2/3 147/2/3
f 159/2/3 147/2/3 146/2/3
f 159/2/3 146/2/3 145/2/3
f 159/2/3 145/2/3 144/2/3
f 159/2/3 144/2/3 143/2/3
f 159/2/3 143/2/3 142/2/3
f 160/2/3 157/2/3 159/2/3
f 161/2/3 157/2/3 160/2/3
f 162/2/3 157/2/3 161/2/3
f 163/2/3 157/2/3 162/2/3
f 164/2/3 157/2/3 163/2/3
f 165/2/3 157/2/3 164/2/3
f 166/2/3 157/2/3 165/2/3
f 167/2/3 157/2/3 166/2/3
f 168/2/3 157/2/3 167/2/3
f 169/2/3 157/2/3 168/2/3
f 170/2/3 157/2/3 169/2/3
f 171/2/3 157/2/3 170/2/3
f 172/2/3 157/2/3 171/2/3
f 173/2/3 157/2/3 172/2/3
f 174/2/3 89/2/3 157/2/3
f 174/2/3 157/2/3 173/2/3
f 176/1/3 160/1/3 159/1/3
f 177/2/3 161/2/3 160/2/3
f 177/1/3 160/1/3 176/1/3
f 178/1/3 162/1/3 161/1/3
f 178/2/3 161/2/3 177/2/3
f 179/2/3 163/2/3 162/2/3
f 179/1/3 162/1/3 178/1/3
f 180/1/3 164/1/3 163/1/3
f 180/2/3 163/2/3 179/2/3
f 181/2/3 165/2/3 164/2/3
f 181/1/3 164/1/3 180/1/3
f 182/1/3 166/1/3 165/1/3
f 182/2/3 165/2/3 181/2/3
f 183/2/3 167/2/3 166/2/3
f 183/1/3 166/1/3 182/1/3
f 184/1/3 168/1/3 167/1/3
f 184/2/3 167/2/3 183/2/3
f 185/2/3 169/2/3 168/2/3
f 185/1/3 168/1/3 184/1/3
f 186/1/3 170/1/3 169/1/3
f 186/2/3 169/2/3 185/2/3
f 187/2/3 171/2/3 170/2/3
f 187/1/3 170/1/3 186/1/3
f 188/1/3 172/1/3 171/1/3
f 188/2/3 171/2/3 187/2/3
f 189/2/3 173/2/3 172/2/3
f 189/1/3 172/1/3 188/1/3
f 190/1/3 174/1/3 173/1/3
f 190/2/3 173/2/3 189/2/3
f 191/2/3 89/2/3 174/2/3
f 191/1/3 174/1/3 190/1/3
f 192/1/3 176/1/3 175/1/3
f 193/2/3 188/2/3 187/2/3
f 193/1/3 176/1/3 192/1/3
f 193/2/3 190/2/3 189/2/3
f 193/2/3 191/2/3 190/2/3
f 193/2/3 189/2/3 188/2/3
f 193/2/3 187/2/3 186/2/3
f 193/2/3 186/2/3 185/2/3
f 193/2/3 185/2/3 184/2/3
f 193/2/3 184/2/3 183/2/3
f 193/2/3 183/2/3 182/2/3
f 193/2/3 182/2/3 181/2/3
f 193/2/3 181/2/3 180/2/3
f 193/2/3 180/2/3 179/2/3
f 193/2/3 179/2/3 178/2/3
f 193/2/3 178/2/3 177/2/3
f 193/2/3 177/2/3 176/2/3
f 194/2/3 191/2/3 193/2/3
f 195/2/3 191/2/3 194/2/3
f 196/2/3 191/2/3 195/2/3
f 197/2/3 191/2/3 196/2/3
f 198/2/3 191/2/3 197/2/3
f 199/2/3 191/2/3 198/2/3
f 200/2/3 191/2/3 199/2/3
f 201/2/3 191/2/3 200/2/3
f 202/2/3 191/2/3 201/2/3
f 203/2/3 191/2/3 202/2/3
f 204/2/3 191/2/3 203/2/3
f 205/2/3 191/2/3 204/2/3
f 206/2/3 191/2/3 205/2/3
f 207/2/3 191/2/3 206/2/3
f 208/2/3 89/2/3 191/2/3
f 208/2/3 191/2/3 207/2/3
f 210/1/3 194/1/3 193/1/3
f 211/2/3 195/2/3 194/2/3
f 211/1/3 194/1/3 210/1/3
f 212/1/3 196/1/3 195/1/3
f 212/2/3 195/2/3 211/2/3
f 213/2/3 197/2/3 196/2/3
f 213/1/3 196/1/3 212/1/3
f 214/1/3 198/1/3 197/1/3
f 214/2/3 197/2/3 213/2/3
f 215/2/3 199/2/3 198/2/3
f 215/1/3 198/1/3 214/1/3
f 216/1/3 200/1/3 199/1/3
f 216/2/3 199/2/3 215/2/3
f 217/2/3 201/2/3 200/2/3
f 217/1/3 200/1/3 216/1/3
f 218/1/3 202/1/3 201/1/3
f 218/2/3 201/2/3 217/2/3
f 219/2/3 203/2/3 202/2/3
f 219/1/3 202/1/3 218/1/3
f 220/1/3 204/1/3 203/1/3
f 220/2/3 203/2/3 219/2/3
f 221/2/3 205/2/3 204/2/3
f 221/1/3 204/1/3 220/1/3
f 222/1/3 206/1/3 205/1/3
f 222/2/3 205/2/3 221/2/3
f 223/2/3 207/2/3 206/2/3
f 223/1/3 206/1/3 222/1/3
f 224/1/3 208/1/3 207/1/3
f 224/2/3 207/2/3 223/2/3
f 225/2/3 89/2/3 208/2/3
f 225/1/3 208/1/3 224/1/3
f 226/1/3 210/1/3 209/1/3
f 227/2/3 222/2/3 221/2/3
f 227/1/3 210/1/3 226/1/3
f 227/2/3 224/2/3 223/2/3
f 227/2/3 225/2/3 224/2/3
f 227/2/3 223/2/3 222/2/3
f 227/2/3 221/2/3 220/2/3
f 227/2/3 220/2/3 219/2/3
f 227/2/3 219/2/3 218/2/3
f 227/2/3 218/2/3 217/2/3
f 227/2/3 217/2/3 216/2/3
f 227/2/3 216/2/3 215/2/3
f 227/2/3 215/2/3 214/2/3
f 227/2/3 214/2/3 213/2/3
f 227/2/3 213/2/3 212/2/3
f 227/2/3 212/2/3 211/2/3
f 227/2/3 211/2/3 210/2/3
f 228/2/3 225/2/3 227/2/3
f 229/2/3 225/2/3 228/2/3
f 230/2/3 225/2/3 229/2/3
f 231/2/3 225/2/3 230/2/3
f 232/2/3 225/2/3 231/2/3
f 233/2/3 225/2/3 232/2/3
f 234/2/3 225/2/3 233/2/3
f 235/2/3 225/2/3 234/2/3
f 236/2/3 225/2/3 235/2/3
f 237/2/3 225/2/3 236/2/3
f 238/2/3 225/2/3 237/2/3
f 239/2/3 225/2/3 238/2/3
f 240/2/3 225/2/3 239/2/3
f 241/2/3 225/2/3 240/2/3
f 242/2/3 89/2/3 225/2/3
f 242/2/3 225/2/3 241/2/3
f 244/1/3 228/1/3 227/1/3
f 245/2/3 229/2/3 228/2/3
f 245/1/3 228/1/3 244/1/3
f 246/1/3 230/1/3 229/1/3
f 246/2/3 229/2/3 245/2/3
f 247/2/3 231/2/3 230/2/3
f 247/1/3 230/1/3 246/1/3
f 248/1/3 232/1/3 231/1/3
f 248/2/3 231/2/3 247/2/3
f 249/2/3 233/2/3 232/2/3
f 249/1/3 232/1/3 248/1/3
f 250/1/3 234/1/3 233/1/3
f 250/2/3 233/2/3 249/2/3
f 251/2/3 235/2/3 234/2/3
f 251/1/3 234/1/3 250/1/3
f 252/1/3 236/1/3 235/1/3
f 252/2/3 235/2/3 251/2/3
f 253/2/3 237/2/3 236/2/3
f 253/1/3 236/1/3 252/1/3
f 254/1/3 238/1/3 237/1/3
f 254/2/3 237/2/3 253/2/3
f 255/2/3 239/2/3 238/2/3
f 255/1/3 238/1/3 254/1/3
f 256/1/3 240/1/3 239/1/3
f 256/2/3 239/2/3 255/2/3
f 257/2/3 241/2/3 240/2/3
f 257/1/3 240/1/3 256/1/3
f 258/1/3 242/1/3 241/1/3
f 258/2/3 241/2/3 257/2/3
f 259/2/3 89/2/3 242/2/3
f 259/1/3 242/1/3 258/1/3
f 260/1/3 244/1/3 243/1/3
f 261/2/3 256/2/3 255/2/3
f 261/1/3 244/1/3 260/1/3
f 261/2/3 258/2/3 257/2/3
f 261/2/3 259/2/3 258/2/3
f 261/2/3 257/2/3 256/2/3
f 261/2/3 255/2/3 254/2/3
f 261/2/3 254/2/3 253/2/3
f 261/2/3 253/2/3 252/2/3
f 261/2/3 252/2/3 251/2/3
f 261/2/3 251/2/3 250/2/3
f 261/2/3 250/2/3 249/2/3
f 261/2/3 249/2/3 248/2/3
f 261/2/3 248/2/3 247/2/3
f 261/2/3 247/2/3 246/2/3
f 261/2/3 246/2/3 245/2/3
f 261/2/3 245/2/3 244/2/3
f 262/2/3 259/2/3 261/2/3
f 263/2/3 259/2/3 262/2/3
f 264/2/3 259/2/3 263/2/3
f 265/2/3 259/2/3 264/2/3
f 266/2/3 259/2/3 265/2/3
f 267/2/3 259/2/3 266/2/3
f 268/2/3 259/2/3 267/2/3
f 269/2/3 259/2/3 268/2/3
f 270/2/3 259/2/3 269/2/3
f 271/2/3 259/2/3 270/2/3
f 272/2/3 259/2/3 271/2/3
f 273/2/3 259/2/3 272/2/3
f 274/2/3 259/2/3 273/2/3
f 275/2/3 259/2/3 274/2/3
f 276/2/3 89/2/3 259/2/3
f 276/2/3 259/2/3 275/2/3
f 278/1/3 262/1/3 261/1/3
f 279/2/3 263/2/3 262/2/3
f 279/1/3 262/1/3 278/1/3
f 280/1/3 264/1/3 263/1/3
f 280/2/3 263/2/3 279/2/3
f 281/2/3 265/2/3 264/2/3
f 281/1/3 264/1/3 280/1/3
f 282/1/3 266/1/3 265/1/3
f 282/2/3 265/2/3 281/2/3
f 283/2/3 267/2/3 266/2/3
f 283/1/3 266/1/3 282/1/3
f 284/1/3 268/1/3 267/1/3
f 284/2/3 267/2/3 283/2/3
f 285/2/3 269/2/3 268/2/3
f 285/1/3 268/1/3 284/1/3
f 286/1/3 270/1/3 269/1/3
f 286/2/3 269/2/3 285/2/3
f 287/2/3 271/2/3 270/2/3
f 287/1/3 270/1/3 286/1/3
f 288/1/3 272/1/3 271/1/3
f 288/2/3 271/2/3 287/2/3
f 289/2/3 273/2/3 272/2/3
f 289/1/3 272/1/3 288/1/3
f 290/1/3 274/1/3 273/1/3
f 290/2/3 273/2/3 289/2/3
f 291/2/3 275/2/3 274/2/3
f 291/1/3 274/1/3 290/1/3
f 292/1/3 276/1/3 275/1/3
f 292/2/3 275/2/3 291/2/3
f 293/2/3 89/2/3 276/2/3
f 293/1/3 276/1/3 292/1/3
f 294/1/3 278/1/3 277/1/3
f 295/2/3 290/2/3 289/2/3
f 295/1/3 278/1/3 294/1/3
f 295/2/3 292/2/3 291/2/3
f 295/2/3 293/2/3 292/2/3
f 295/2/3 291/2/3 290/2/3
f 295/2/3 289/2/3 288/2/3
f 295/2/3 288/2/3 287/2/3
f 295/2/3 287/2/3 286/2/3
f 295/2/3 286/2/3 285/2/3
f 295/2/3 285/2/3 284/2/3
f 295/2/3 284/2/3 283/2/3
f 295/2/3 283/2/3 282/2/3
f 295/2/3 282/2/3 281/2/3
f 295/2/3 281/2/3 280/2/3
f 295/2/3 280/2/3 279/2/3
f 295/2/3 279/2/3 278/2/3
f 296/2/3 293/2/3 295/2/3
f 297/2/3 293/2/3 296/2/3
f 298/2/3 293/2/3 297/2/3
f 299/2/3 293/2/3 298/2/3
f 300/2/3 293/2/3 299/2/3
f 301/2/3 293/2/3 300/2/3
f 302/2/3 293/2/3 301/2/3
f 303/2/3 293/2/3 302/2/3
f 304/2/3 293/2/3 303/2/3
f 305/2/3 293/2/3 304/2/3
f 306/2/3 293/2/3 305/2/3
f 307/2/3 293/2/3 306/2/3
f 308/2/3 293/2/3 307/2/3
f 309/2/3 293/2/3 308/2/3
f 310/2/3 89/2/3 293/2/3
f 310/2/3 293/2/3 309/2/3
f 312/1/3 296/1/3 295/1/3
f 313/2/3 297/2/3 296/2/3
f 313/1/3 296/1/3 312/1/3
f 314/1/3 298/1/3 297/1/3
f 314/2/3 297/2/3 313/2/3
f 315/2/3 299/2/3 298/2/3
f 315/1/3 298/1/3 314/1/3
f 316/1/3 300/1/3 299/1/3
f 316/2/3 299/2/3 315/2/3
f 317/2/3 301/2/3 300/2/3
f 317/1/3 300/1/3 316/1/3
f 318/1/3 302/1/3 301/1/3
f 318/2/3 301/2/3 317/2/3
f 319/2/3 303/2/3 302/2/3
f 319/1/3 302/1/3 318/1/3
f 320/1/3 304/1/3 303/1/3
f 320/2/3 303/2/3 319/2/3
f 321/2/3 305/2/3 304/2/3
f 321/1/3 304/1/3 320/1/3
f 322/1/3 306/1/3 305/1/3
f 322/2/3 305/2/3 321/2/3
f 323/2/3 307/2/3 306/2/3
f 323/1/3 306/1/3 322/1/3
f 324/1/3 308/1/3 307/1/3
f 324/2/3 307/2/3 323/2/3
f 325/2/3 309/2/3 308/2/3
f 325/1/3 308/1/3 324/1/3
f 326/1/3 310/1/3 309/1/3
f 326/2/3 309/2/3 325/2/3
f 327/2/3 89/2/3 310/2/3
f 327/1/3 310/1/3 326/1/3
f 328/1/3 312/1/3 311/1/3
f 329/2/3 324/2/3 323/2/3
f 329/1/3 312/1/3 328/1/3
f 329/2/3 326/2/3 325/2/3
f 329/2/3 327/2/3 326/2/3
f 329/2/3 325/2/3 324/2/3
f 329/2/3 323/2/3 322/2/3
f 329/2/3 322/2/3 321/2/3
f 329/2/3 321/2/3 320/2/3
f 329/2/3 320/2/3 319/2/3
f 329/2/3 319/2/3 318/2/3
f 329/2/3 318/2/3 317/2/3
f 329/2/3 317/2/3 316/2/3
f 329/2/3 316/2/3 315/2/3
f 329/2/3 315/2/3 314/2/3
f 329/2/3 314/2/3 313/2/3
f 329/2/3 313/2/3 312/2/3
f 330/2/3 327/2/3 329/2/3
f 331/2/3 327/2/3 330/2/3
f 332/2/3 327/2/3 331/2/3
f 333/2/3 327/2/3 332/2/3
f 334/2/3 327/2/3 333/2/3
f 335/2/3 327/2/3 334/2/3
f 336/2/3 327/2/3 335/2/3
f 337/2/3 327/2/3 336/2/3
f 338/2/3 327/2/3 337/2/3
f 339/2/3 327/2/3 338/2/3
f 340/2/3 327/2/3 339/2/3
f 341/2/3 327/2/3 340/2/3
f 342/2/3 327/2/3 341/2/3
f 343/2/3 327/2/3 342/2/3
f 344/2/3 89/2/3 327/2/3
f 344/2/3 327/2/3 343/2/3
f 346/1/3 330/1/3 329/1/3
f 347/2/3 331/2/3 330/2/3
f 347/1/3 330/1/3 346/1/3
f 348/1/3 332/1/3 331/1/3
f 348/2/3 331/2/3 347/2/3
f 349/2/3 333/2/3 332/2/3
f 349/1/3 332/1/3 348/1/3
f 350/1/3 334/1/3 333/1/3
f 350/2/3 333/2/3 349/2/3
f 351/2/3 335/2/3 334/2/3
f 351/1/3 334/1/3 350/1/3
f 352/1/3 336/1/3 335/1/3
f 352/2/3 335/2/3 351/2/3
f 353/2/3 337/2/3 336/2/3
f 353/1/3 336/1/3 352/1/3
f 354/1/3 338/1/3 337/1/3
f 354/2/3 337/2/3 353/2/3
f 355/2/3 339/2/3 338/2/3
f 355/1/3 338/1/3 354/1/3
f 356/1/3 340/1/3 339/1/3
f 356/2/3 339/2/3 355/2/3
f 357/2/3 341/2/3 340/2/3
f 357/1/3 340/1/3 356/1/3
f 358/1/3 342/1/3 341/1/3
f 358/2/3 341/2/3 357/2/3
f 359/2/3 343/2/3 342/2/3
f 359/1/3 342/1/3 358/1/3
f 360/1/3 344/1/3 343/1/3
f 360/2/3 343/2/3 359/2/3
f 361/2/3 89/2/3 344/2/3
f 361/1/3 344/1/3 360/1/3
f 362/1/3 346/1/3 345/1/3
f 363/2/3 358/2/3 357/2/3
f 363/1/3 346/1/3 362/1/3
f 363/2/3 360/2/3 359/2/3
f 363/2/3 361/2/3 360/2/3
f 363/2/3 359/2/3 358/2/3
f 363/2/3 357/2/3 356/2/3
f 363/2/3 356/2/3 355/2/3
f 363/2/3 355/2/3 354/2/3
f 363/2/3 354/2/3 353/2/3
f 363/2/3 353/2/3 352/2/3
f 363/2/3 352/2/3 351/2/3
f 363/2/3 351/2/3 350/2/3
f 363/2/3 350/2/3 349/2/3
f 363/2/3 349/2/3 348/2/3
f 363/2/3 348/2/3 347/2/3
f 363/2/3 347/2/3 346/2/3
f 364/2/3 361/2/3 363/2/3
f 365/2/3 361/2/3 364/2/3
f 366/2/3 361/2/3 365/2/3
f 367/2/3 361/2/3 366/2/3
f 368/2/3 361/2/3 367/2/3
f 369/2/3 361/2/3 368/2/3
f 370/2/3 361/2/3 369/2/3
f 371/2/3 361/2/3 370/2/3
f 372/2/3 361/2/3 371/2/3
f 373/2/3 361/2/3 372/2/3
f 374/2/3 361/2/3 373/2/3
f 375/2/3 361/2/3 374/2/3
f 376/2/3 361/2/3 375/2/3
f 377/2/3 361/2/3 376/2/3
f 378/2/3 89/2/3 361/2/3
f 378/2/3 361/2/3 377/2/3
f 380/1/3 364/1/3 363/1/3
f 381/2/3 365/2/3 364/2/3
f 381/1/3 364/1/3 380/1/3
f 382/1/3 366/1/3 365/1/3
f 382/2/3 365/2/3 381/2/3
f 383/2/3 367/2/3 366/2/3
f 383/1/3 366/1/3 382/1/3
f 384/1/3 368/1/3 367/1/3
f 384/2/3 367/2/3 383/2/3
f 385/2/3 369/2/3 368/2/3
f 385/1/3 368/1/3 384/1/3
f 386/1/3 370/1/3 369/1/3
f 386/2/3 369/2/3 385/2/3
f 387/2/3 371/2/3 370/2/3
f 387/1/3 370/1/3 386/1/3
f 388/1/3 372/1/3 371/1/3
f 388/2/3 371/2/3 387/2/3
f 389/2/3 373/2/3 372/2/3
f 389/1/3 372/1/3 388/1/3
f 390/1/3 374/1/3 373/1/3
f 390/2/3 373/2/3 389/2/3
f 391/2/3 375/2/3 374/2/3
f 391/1/3 374/1/3 390/1/3
f 392/1/3 376/1/3 375/1/3
f 392/2/3 375/2/3 391/2/3
f 393/2/3 377/2/3 376/2/3
f 393/1/3 376/1/3 392/1/3
f 394/1/3 378/1/3 377/1/3
f 394/2/3 377/2/3 393/2/3
f 395/2/3 89/2/3 378/2/3
f 395/1/3 378/1/3 394/1/3
f 396/1/3 380/1/3 379/1/3
f 397/2/3 392/2/3 391/2/3
f 397/1/3 380/1/3 396/1/3
f 397/2/3 394/2/3 393/2/3
f 397/2/3 395/2/3 394/2/3
f 397/2/3 393/2/3 392/2/3
f 397/2/3 391/2/3 390/2/3
f 397/2/3 390/2/3 389/2/3
f 397/2/3 389/2/3 388/2/3
f 397/2/3 388/2/3 387/2/3
f 397/2/3 387/2/3 386/2/3
f 397/2/3 386/2/3 385/2/3
f 397/2/3 385/2/3 384/2/3
f 397/2/3 384/2/3 383/2/3
f 397/2/3 383/2/3 382/2/3
f 397/2/3 382/2/3 381/2/3
f 397/2/3 381/2/3 380/2/3
f 398/2/3 89/2/3 395/2/3
f 398/2/3 395/2/3 397/2/3
f 401/2/3 400/2/3 399/2/3
f 402/2/3 400/2/3 401/2/3
f 405/2/3 404/2/3 403/2/3
f 406/2/3 404/2/3 405/2/3
f 409/2/3 408/2/3 407/2/3
f 410/2/3 408/2/3 409/2/3
f 413/2/3 412/2/3 411/2/3
f 414/2/3 412/2/3 413/2/3
f 417/2/3 416/2/3 415/2/3
f 418/2/3 416/2/3 417/2/3
f 421/1/3 420/1/3 419/1/3
f 422/1/3 420/1/3 421/1/3
f 425/1/3 424/1/3 423/1/3
f 426/1/3 424/1/3 425/1/3
f 429/1/3 428/1/3 427/1/3
f 430/1/3 428/1/3 429/1/3
f 433/1/3 432/1/3 431/1/3
f 434/1/3 432/1/3 433/1/3
f 435/1/4 436/1/4 438/1/4
f 436/2/4 437/2/4 439/2/4
f 438/1/4 436/1/4 439/1/4
f 439/2/4 437/2/4 440/2/4
f 461/1/5 444/1/5 443/1/5
f 462/1/5 446/1/5 445/1/5
f 463/1/5 446/1/5 462/1/5
f 464/1/5 448/1/5 447/1/5
f 465/1/5 452/1/5 451/1/5
f 466/1/5 454/1/5 453/1/5
f 467/1/5 454/1/5 466/1/5
f 468/1/5 456/1/5 455/1/5
f 469/1/5 458/1/5 457/1/5
f 470/1/5 460/1/5 459/1/5
f 471/1/5 442/1/5 441/1/5
f 472/1/5 461/1/5 443/1/5
f 473/2/5 462/2/5 461/2/5
f 473/1/5 472/1/5 471/1/5
f 473/1/5 461/1/5 472/1/5
f 474/1/5 463/1/5 462/1/5
f 474/2/5 462/2/5 473/2/5
f 475/2/5 464/2/5 463/2/5
f 475/1/5 463/1/5 474/1/5
f 476/1/5 448/1/5 464/1/5
f 476/2/5 464/2/5 475/2/5
f 477/1/5 448/1/5 476/1/5
f 478/1/5 450/1/5 449/1/5
f 479/1/5 450/1/5 478/1/5
f 480/1/5 465/1/5 451/1/5
f 481/2/5 466/2/5 465/2/5
f 481/1/5 465/1/5 480/1/5
f 482/1/5 467/1/5 466/1/5
f 482/2/5 466/2/5 481/2/5
f 483/2/5 468/2/5 467/2/5
f 483/1/5 467/1/5 482/1/5
f 484/1/5 456/1/5 468/1/5
f 484/2/5 468/2/5 483/2/5
f 485/1/5 456/1/5 484/1/5
f 486/1/5 469/1/5 457/1/5
f 487/2/5 470/2/5 469/2/5
f 487/1/5 469/1/5 486/1/5
f 488/1/5 460/1/5 470/1/5
f 488/2/5 470/2/5 487/2/5
f 489/1/5 486/1/5 485/1/5
f 489/1/5 485/1/5 484/1/5
f 489/1/5 488/1/5 487/1/5
f 489/1/5 471/1/5 441/1/5
f 489/1/5 484/1/5 483/1/5
f 489/1/5 473/1/5 471/1/5
f 489/1/5 478/1/5 477/1/5
f 489/1/5 477/1/5 476/1/5
f 489/1/5 476/1/5 475/1/5
f 489/1/5 487/1/5 486/1/5
f 489/1/5 474/1/5 473/1/5
f 489/1/5 483/1/5 482/1/5
f 489/1/5 479/1/5 478/1/5
f 489/1/5 480/1/5 479/1/5
f 489/1/5 481/1/5 480/1/5
f 489/1/5 475/1/5 474/1/5
f 489/1/5 482/1/5 481/1/5
f 490/1/5 460/1/5 488/1/5
f 490/1/5 488/1/5 489/1/5
f 509/1/5 492/1/5 491/1/5
f 510/1/5 492/1/5 509/1/5
f 511/1/5 494/1/5 493/1/5
f 512/1/5 494/1/5 511/1/5
f 513/1/5 496/1/5 495/1/5
f 514/1/5 496/1/5 513/1/5
f 515/1/5 502/1/5 501/1/5
f 516/1/5 502/1/5 515/1/5
f 517/1/5 504/1/5 503/1/5
f 518/1/5 504/1/5 517/1/5
f 519/1/5 508/1/5 507/1/5
f 520/1/5 508/1/5 519/1/5
f 521/2/5 510/2/5 509/2/5
f 522/2/5 510/2/5 521/2/5
f 523/1/5 498/1/5 497/1/5
f 524/1/5 498/1/5 523/1/5
f 525/1/5 500/1/5 499/1/5
f 526/1/5 500/1/5 525/1/5
f 527/1/5 506/1/5 505/1/5
f 528/1/5 506/1/5 527/1/5
f 529/2/6 530/2/6 531/2/6
f 531/2/6 530/2/6 532/2/6
