# MagicaVoxel @ Ephtracy

# group
o 

# material
mtllib teapot-4.mtl
usemtl palette

# normals
vn -1 0 0
vn 1 0 0
vn 0 0 1
vn 0 0 -1
vn 0 -1 0
vn 0 1 0

# texcoords
vt 0.423828 0.5
vt 0.427734 0.5
vt 0.439453 0.5

# verts
v -0.6 5.1 0.7
v -0.6 5.1 0.6
v -0.6 5.1 -1.4
v -0.6 5.1 -1.5
v -0.6 5.8 0.6
v -0.6 5.8 -1.4
v -0.6 6 -0.1
v -0.6 6 -0.3
v -0.6 6 -0.5
v -0.6 6 -0.7
v -0.6 6.1 0.7
v -0.6 6.1 -0.1
v -0.6 6.1 -0.7
v -0.6 6.1 -1.5
v -0.6 7.9 0.4
v -0.6 7.9 -0.3
v -0.6 7.9 -0.5
v -0.6 7.9 -1.2
v -0.6 8 0.7
v -0.6 8 0.4
v -0.6 8 -1.2
v -0.6 8 -1.5
v -0.5 7.9 0.4
v -0.5 7.9 -0.1
v -0.5 7.9 -0.3
v -0.5 7.9 -0.5
v -0.5 7.9 -0.7
v -0.5 7.9 -1.2
v -0.5 8 0.4
v -0.5 8 -0.1
v -0.5 8 -0.7
v -0.5 8 -1.2
v 0.7 5.1 0.7
v 0.7 5.1 0.6
v 0.7 5.1 -1.4
v 0.7 5.1 -1.5
v 0.7 5.9 0.6
v 0.7 5.9 -1.4
v 0.7 6 -0.1
v 0.7 6 -0.3
v 0.7 6 -0.5
v 0.7 6 -0.7
v 0.7 6.1 0.7
v 0.7 6.1 -0.1
v 0.7 6.1 -0.7
v 0.7 6.1 -1.5
v 0.7 7.9 -0.1
v 0.7 7.9 -0.3
v 0.7 7.9 -0.5
v 0.7 7.9 -0.7
v 0.7 8 0.7
v 0.7 8 -0.1
v 0.7 8 -0.7
v 0.7 8 -1.5
v -0.6 5.1 0.7
v -0.6 6.1 0.7
v -0.6 8 0.7
v -0.1 7.2 0.7
v -0.1 7.9 0.7
v 0.6 7.2 0.7
v 0.6 7.9 0.7
v 0.7 5.1 0.7
v 0.7 6.1 0.7
v 0.7 8 0.7
v -0.6 7.9 -1.2
v -0.6 8 -1.2
v -0.5 7.9 -1.2
v -0.5 8 -1.2
v -0.6 7.9 0.4
v -0.6 8 0.4
v -0.5 7.9 0.4
v -0.5 8 0.4
v -0.6 5.1 -1.5
v -0.6 6.1 -1.5
v -0.6 8 -1.5
v -0.1 7.2 -1.5
v -0.1 7.9 -1.5
v 0.6 7.2 -1.5
v 0.6 7.9 -1.5
v 0.7 5.1 -1.5
v 0.7 6.1 -1.5
v 0.7 8 -1.5
v -0.6 5.1 0.7
v 0.7 5.1 0.7
v -0.6 5.1 0.6
v 0.7 5.1 0.6
v -0.6 5.1 -1.4
v 0.7 5.1 -1.4
v -0.6 5.1 -1.5
v 0.7 5.1 -1.5
v -0.6 7.9 0.4
v -0.5 7.9 0.4
v -0.5 7.9 -0.1
v -0.6 7.9 -0.3
v -0.5 7.9 -0.3
v -0.6 7.9 -0.5
v -0.5 7.9 -0.5
v -0.5 7.9 -0.7
v -0.6 7.9 -1.2
v -0.5 7.9 -1.2
v -0.6 8 0.7
v 0.7 8 0.7
v -0.6 8 0.4
v -0.5 8 0.4
v -0.5 8 -0.1
v 0.7 8 -0.1
v -0.5 8 -0.7
v 0.7 8 -0.7
v -0.6 8 -1.2
v -0.5 8 -1.2
v -0.6 8 -1.5
v 0.7 8 -1.5

# faces
f 5/3/1 2/3/1 1/3/1
f 5/2/1 3/2/1 2/2/1
f 6/3/1 4/3/1 3/3/1
f 6/2/1 3/2/1 5/2/1
f 7/3/1 6/3/1 5/3/1
f 8/3/1 6/3/1 7/3/1
f 9/3/1 6/3/1 8/3/1
f 10/3/1 6/3/1 9/3/1
f 11/3/1 5/3/1 1/3/1
f 11/3/1 7/3/1 5/3/1
f 12/2/1 8/2/1 7/2/1
f 12/3/1 7/3/1 11/3/1
f 13/3/1 6/3/1 10/3/1
f 13/2/1 10/2/1 9/2/1
f 14/3/1 4/3/1 6/3/1
f 14/3/1 6/3/1 13/3/1
f 15/2/1 12/2/1 11/2/1
f 16/2/1 8/2/1 12/2/1
f 16/2/1 12/2/1 15/2/1
f 16/3/1 9/3/1 8/3/1
f 17/2/1 13/2/1 9/2/1
f 17/3/1 9/3/1 16/3/1
f 17/2/1 14/2/1 13/2/1
f 18/2/1 14/2/1 17/2/1
f 19/2/1 15/2/1 11/2/1
f 20/2/1 15/2/1 19/2/1
f 21/2/1 14/2/1 18/2/1
f 22/2/1 14/2/1 21/2/1
f 29/2/1 24/2/1 23/2/1
f 30/3/1 25/3/1 24/3/1
f 30/2/1 24/2/1 29/2/1
f 30/3/1 26/3/1 25/3/1
f 30/3/1 27/3/1 26/3/1
f 31/2/1 28/2/1 27/2/1
f 31/3/1 27/3/1 30/3/1
f 32/2/1 28/2/1 31/2/1
f 33/3/2 34/3/2 37/3/2
f 34/2/2 35/2/2 37/2/2
f 35/3/2 36/3/2 38/3/2
f 37/2/2 35/2/2 38/2/2
f 37/3/2 38/3/2 39/3/2
f 39/3/2 38/3/2 40/3/2
f 40/3/2 38/3/2 41/3/2
f 41/3/2 38/3/2 42/3/2
f 33/3/2 37/3/2 43/3/2
f 37/3/2 39/3/2 43/3/2
f 39/2/2 40/2/2 44/2/2
f 43/3/2 39/3/2 44/3/2
f 42/3/2 38/3/2 45/3/2
f 41/2/2 42/2/2 45/2/2
f 38/3/2 36/3/2 46/3/2
f 45/3/2 38/3/2 46/3/2
f 44/2/2 40/2/2 47/2/2
f 43/2/2 44/2/2 47/2/2
f 40/3/2 41/3/2 48/3/2
f 47/2/2 40/2/2 48/2/2
f 41/2/2 45/2/2 49/2/2
f 48/3/2 41/3/2 49/3/2
f 45/2/2 46/2/2 49/2/2
f 49/2/2 46/2/2 50/2/2
f 43/2/2 47/2/2 51/2/2
f 47/3/2 48/3/2 52/3/2
f 51/2/2 47/2/2 52/2/2
f 48/3/2 49/3/2 52/3/2
f 49/3/2 50/3/2 52/3/2
f 50/2/2 46/2/2 53/2/2
f 52/3/2 50/3/2 53/3/2
f 53/2/2 46/2/2 54/2/2
f 58/2/3 57/2/3 56/2/3
f 59/2/3 57/2/3 58/2/3
f 60/2/3 58/2/3 56/2/3
f 60/3/3 59/3/3 58/3/3
f 61/2/3 57/2/3 59/2/3
f 61/3/3 59/3/3 60/3/3
f 62/3/3 56/3/3 55/3/3
f 63/2/3 60/2/3 56/2/3
f 63/3/3 56/3/3 62/3/3
f 63/2/3 61/2/3 60/2/3
f 64/2/3 57/2/3 61/2/3
f 64/2/3 61/2/3 63/2/3
f 67/2/3 66/2/3 65/2/3
f 68/2/3 66/2/3 67/2/3
f 69/2/4 70/2/4 71/2/4
f 71/2/4 70/2/4 72/2/4
f 74/2/4 75/2/4 76/2/4
f 76/2/4 75/2/4 77/2/4
f 74/2/4 76/2/4 78/2/4
f 76/3/4 77/3/4 78/3/4
f 77/2/4 75/2/4 79/2/4
f 78/3/4 77/3/4 79/3/4
f 73/3/4 74/3/4 80/3/4
f 74/2/4 78/2/4 81/2/4
f 80/3/4 74/3/4 81/3/4
f 78/2/4 79/2/4 81/2/4
f 79/2/4 75/2/4 82/2/4
f 81/2/4 79/2/4 82/2/4
f 85/3/5 84/3/5 83/3/5
f 86/3/5 84/3/5 85/3/5
f 87/2/5 86/2/5 85/2/5
f 88/2/5 86/2/5 87/2/5
f 89/3/5 88/3/5 87/3/5
f 90/3/5 88/3/5 89/3/5
f 91/2/6 92/2/6 93/2/6
f 91/2/6 93/2/6 94/2/6
f 94/2/6 93/2/6 95/2/6
f 94/3/6 95/3/6 96/3/6
f 96/3/6 95/3/6 97/3/6
f 96/2/6 97/2/6 98/2/6
f 96/2/6 98/2/6 99/2/6
f 99/2/6 98/2/6 100/2/6
f 101/2/6 102/2/6 103/2/6
f 103/2/6 102/2/6 104/2/6
f 104/2/6 102/2/6 105/2/6
f 105/2/6 102/2/6 106/2/6
f 105/3/6 106/3/6 107/3/6
f 107/3/6 106/3/6 108/3/6
f 107/2/6 108/2/6 110/2/6
f 109/2/6 110/2/6 111/2/6
f 110/2/6 108/2/6 112/2/6
f 111/2/6 110/2/6 112/2/6
