# MagicaVoxel @ Ephtracy

# group
o 

# material
mtllib teapot-2.mtl
usemtl palette

# normals
vn -1 0 0
vn 1 0 0
vn 0 0 1
vn 0 0 -1
vn 0 -1 0
vn 0 1 0

# texcoords
vt 0.423828 0.5
vt 0.427734 0.5
vt 0.439453 0.5

# verts
v -0.4 5.4 -0.1
v -0.4 5.4 -0.7
v -0.4 5.8 -0.6
v -0.4 5.8 -0.7
v -0.4 7.7 -0.1
v -0.4 7.7 -0.6
v -0.3 5.8 -0.6
v -0.3 5.8 -0.7
v -0.3 7.7 -0.6
v -0.3 7.7 -0.7
v 0.5 5.4 -0.1
v 0.5 5.4 -0.7
v 0.5 7.7 -0.1
v 0.5 7.7 -0.7
v -0.4 5.4 -0.1
v -0.4 7.7 -0.1
v 0.5 5.4 -0.1
v 0.5 7.7 -0.1
v -0.4 5.8 -0.6
v -0.4 7.7 -0.6
v -0.3 5.8 -0.6
v -0.3 7.7 -0.6
v -0.4 5.4 -0.7
v -0.4 5.8 -0.7
v -0.3 5.8 -0.7
v -0.3 7.7 -0.7
v -0.2 5.8 -0.7
v -0.2 7.7 -0.7
v 0.5 5.4 -0.7
v 0.5 7.7 -0.7
v -0.4 5.4 -0.1
v 0.5 5.4 -0.1
v -0.4 5.4 -0.7
v 0.5 5.4 -0.7
v -0.4 5.8 -0.6
v -0.3 5.8 -0.6
v -0.4 5.8 -0.7
v -0.3 5.8 -0.7
v -0.4 7.7 -0.1
v 0.5 7.7 -0.1
v -0.4 7.7 -0.6
v -0.3 7.7 -0.6
v -0.2 7.7 -0.6
v -0.3 7.7 -0.7
v -0.2 7.7 -0.7
v 0.5 7.7 -0.7

# faces
f 3/2/1 2/2/1 1/2/1
f 4/2/1 2/2/1 3/2/1
f 5/2/1 3/2/1 1/2/1
f 6/2/1 3/2/1 5/2/1
f 9/3/1 8/3/1 7/3/1
f 10/3/1 8/3/1 9/3/1
f 11/2/2 12/2/2 13/2/2
f 13/2/2 12/2/2 14/2/2
f 17/2/3 16/2/3 15/2/3
f 18/2/3 16/2/3 17/2/3
f 19/2/4 20/2/4 21/2/4
f 21/2/4 20/2/4 22/2/4
f 23/2/4 24/2/4 25/2/4
f 23/2/4 25/2/4 27/2/4
f 25/3/4 26/3/4 27/3/4
f 27/3/4 26/3/4 28/3/4
f 23/2/4 27/2/4 29/2/4
f 27/2/4 28/2/4 29/2/4
f 29/2/4 28/2/4 30/2/4
f 33/2/5 32/2/5 31/2/5
f 34/2/5 32/2/5 33/2/5
f 35/2/6 36/2/6 37/2/6
f 37/2/6 36/2/6 38/2/6
f 39/2/6 40/2/6 41/2/6
f 41/2/6 40/2/6 42/2/6
f 42/2/6 40/2/6 43/2/6
f 42/3/6 43/3/6 44/3/6
f 43/2/6 40/2/6 45/2/6
f 44/3/6 43/3/6 45/3/6
f 45/2/6 40/2/6 46/2/6
